<svg width="713" height="385" viewBox="0 0 713 385" fill="none" xmlns="http://www.w3.org/2000/svg">
<g clip-path="url(#clip0_168_229)">
<path d="M45.162 321.54L42.938 332.702C42.7704 333.556 42.5952 334.424 42.4048 335.285C40.546 334.9 38.6187 335.008 36.8143 335.598C38.2459 337.644 39.5287 339.791 40.653 342.021C39.2516 346.341 37.1951 350.333 33.7525 353.221C31.4532 355.107 28.707 356.368 25.7787 356.883C22.8504 357.398 19.8388 357.15 17.0344 356.162L17.1334 355.72C13.4318 348.535 15.4426 339.476 20.0429 332.839C22.3892 329.565 25.1693 326.626 28.3068 324.1C31.4142 321.51 34.7731 319.186 38.1015 316.892C38.8491 316.378 39.7329 316.098 40.6401 316.089C41.5473 316.08 42.4367 316.341 43.1946 316.84C43.9525 317.339 44.5444 318.053 44.8949 318.89C45.2453 319.727 45.3383 320.65 45.162 321.54Z" fill="#E4E4E4"/>
<path d="M17.8265 383.02C16.8904 376.198 15.9277 369.29 16.5842 362.395C17.1676 356.272 19.0344 350.292 22.8366 345.388C24.8546 342.79 27.3101 340.564 30.0928 338.811C30.8186 338.353 31.4858 339.503 30.7638 339.959C25.9492 343.003 22.2253 347.497 20.1289 352.795C17.8135 358.686 17.4418 365.109 17.844 371.366C18.0854 375.151 18.5965 378.909 19.1121 382.666C19.1536 382.836 19.1287 383.015 19.0423 383.167C18.9559 383.319 18.8147 383.433 18.6475 383.484C18.4775 383.53 18.2962 383.507 18.143 383.42C17.9899 383.333 17.8772 383.189 17.8295 383.019L17.8265 383.02Z" fill="#F2F2F2"/>
<path d="M25.8601 40.8656C58.4869 40.2981 91.1172 40.2166 123.751 40.6211C156.38 41.0279 188.998 41.923 221.606 43.3062C239.903 44.0825 258.193 45.0124 276.475 46.096C277.944 46.183 277.939 43.8969 276.475 43.8103C243.9 41.8819 211.302 40.4391 178.679 39.4816C146.062 38.5268 113.435 38.0602 80.7982 38.0818C62.4845 38.094 44.1718 38.26 25.8601 38.5799C24.3914 38.6054 24.3868 40.8913 25.8601 40.8656Z" fill="#E6E6E6"/>
<path d="M253.238 26.5325L267.505 25.4703C268.962 25.3617 268.974 23.0751 267.505 23.1845L253.238 24.2467C251.781 24.3552 251.769 26.6419 253.238 26.5325Z" fill="#E6E6E6"/>
<path d="M253.238 40.2473L267.505 39.1851C268.962 39.0766 268.974 36.7899 267.505 36.8993L253.238 37.9615C251.781 38.07 251.769 40.3567 253.238 40.2473Z" fill="#E6E6E6"/>
<path d="M252.165 33.9847L272.449 35.8282C273.913 35.9613 273.904 33.6747 272.449 33.5424L252.165 31.6989C250.701 31.5659 250.71 33.8525 252.165 33.9847Z" fill="#E6E6E6"/>
<path d="M34.303 23.4591C33.3109 23.453 32.3389 23.7391 31.5083 24.2818C30.6776 24.8245 30.025 25.5998 29.6318 26.511C29.1919 27.4029 29.0561 28.4143 29.2452 29.3906C29.4342 30.367 29.9378 31.2545 30.6787 31.9175C31.3753 32.5104 32.2108 32.9169 33.107 33.099C34.0033 33.2812 34.9311 33.233 35.8037 32.9591C36.6961 32.6473 37.4699 32.0664 38.0187 31.2965C38.5675 30.5266 38.8642 29.6054 38.8681 28.6598C38.9079 27.6107 38.6238 26.5747 38.0544 25.6928C37.485 24.811 36.6578 24.1259 35.6855 23.7309C35.3933 23.6515 35.0817 23.6908 34.8184 23.8403C34.5552 23.9899 34.3617 24.2374 34.2801 24.5291C34.2081 24.8211 34.2506 25.1296 34.3991 25.3911C34.5475 25.6526 34.7905 25.8473 35.0781 25.935C35.2772 26.0119 34.8962 25.8371 35.0821 25.9384C35.1585 25.9801 35.2364 26.0177 35.3115 26.0622C35.3753 26.1 35.4364 26.1414 35.4984 26.1819C35.7117 26.3212 35.3943 26.0797 35.5307 26.2049C35.6489 26.3134 35.766 26.4193 35.8734 26.5391C35.9141 26.5844 36.0732 26.7103 35.9495 26.6223C35.8549 26.555 35.9131 26.5708 35.9495 26.6249C35.9772 26.6659 36.0065 26.7058 36.0338 26.7471C36.1229 26.882 36.2038 27.022 36.2763 27.1665C36.2931 27.1999 36.3084 27.2341 36.3255 27.2674C36.3575 27.3297 36.4039 27.346 36.3286 27.268C36.2568 27.1934 36.3025 27.1985 36.3282 27.2702C36.3451 27.3174 36.3636 27.364 36.38 27.4114C36.4336 27.5655 36.4786 27.7226 36.5147 27.8817C36.5315 27.9553 36.545 28.0293 36.5593 28.1033C36.6104 28.3658 36.5519 27.9401 36.5642 28.1351C36.5745 28.2979 36.5865 28.4589 36.5837 28.6223C36.5824 28.6971 36.5792 28.7718 36.574 28.8464C36.5713 28.8836 36.5672 28.9207 36.5647 28.958C36.5529 29.1373 36.5525 28.8924 36.5776 28.8757C36.5254 29.0279 36.4907 29.1856 36.4744 29.3458C36.4539 29.4168 36.4296 29.4863 36.4068 29.5566C36.3273 29.8018 36.4814 29.4229 36.3967 29.5905C36.327 29.7345 36.2491 29.8744 36.1633 30.0094C36.1261 30.0659 35.9857 30.1937 36.1005 30.1048C36.2251 30.0083 36.0352 30.1744 35.9947 30.2172C35.9427 30.2721 35.8887 30.3251 35.8327 30.3762C35.7968 30.4112 35.759 30.4441 35.7194 30.4747C35.7121 30.471 35.9102 30.3423 35.8034 30.4104C35.6677 30.4971 35.5392 30.5897 35.3961 30.6651C35.3794 30.6739 35.1965 30.7587 35.1973 30.7617C35.1894 30.7308 35.4324 30.6761 35.2656 30.73C35.2306 30.7413 35.1962 30.755 35.1613 30.7668C35.0094 30.8179 34.8544 30.8592 34.6972 30.8904C34.6612 30.8976 34.6232 30.9012 34.5877 30.9104C34.4696 30.941 34.7006 30.8925 34.7075 30.8965C34.6202 30.8927 34.5328 30.9005 34.4475 30.9195C34.2854 30.9288 34.1229 30.9288 33.9608 30.9195C33.9233 30.9173 33.8859 30.9136 33.8484 30.9114C33.7614 30.9063 33.6975 30.8436 33.8133 30.9117C33.9027 30.9643 33.8953 30.9259 33.8161 30.9113C33.779 30.9044 33.7418 30.8987 33.7048 30.8917C33.5444 30.8617 33.3857 30.8228 33.2295 30.7753C33.1455 30.7496 33.0632 30.7199 32.9803 30.6909C32.9442 30.6804 32.909 30.6668 32.8752 30.6504C32.8747 30.641 33.0888 30.7528 32.9758 30.6918C32.8331 30.6149 32.6855 30.5504 32.5461 30.4663C32.4718 30.4214 32.4003 30.3726 32.328 30.3246C32.2962 30.3054 32.266 30.2837 32.2376 30.2598C32.24 30.2501 32.4147 30.4121 32.323 30.3247C32.207 30.2141 32.0829 30.1151 31.9731 29.9973C31.9479 29.9704 31.9242 29.9422 31.8991 29.9152L31.8749 29.8875C31.813 29.8118 31.8118 29.8121 31.8714 29.8885C31.932 29.9064 31.9292 29.9729 31.8718 29.8865C31.8513 29.8558 31.8295 29.8259 31.8091 29.7951C31.7163 29.6628 31.6372 29.5215 31.573 29.3733C31.5785 29.3689 31.6719 29.6483 31.6005 29.4375C31.587 29.3976 31.5718 29.3584 31.5586 29.3185C31.5324 29.2393 31.5093 29.1593 31.4893 29.0783C31.4696 28.9982 31.4594 28.9154 31.4395 28.8356C31.4059 28.701 31.4591 28.9418 31.4531 28.9358C31.434 28.9169 31.4421 28.8002 31.4407 28.7723C31.4315 28.593 31.452 28.4189 31.4552 28.2406C31.4576 28.1025 31.4437 28.3483 31.4409 28.3411C31.4416 28.2997 31.4489 28.2587 31.4625 28.2197C31.4832 28.1257 31.5025 28.0317 31.5278 27.9388C31.5568 27.8323 31.5902 27.7272 31.6279 27.6233C31.642 27.5845 31.6592 27.5462 31.6723 27.507C31.7204 27.3635 31.5771 27.6803 31.6561 27.5509C31.7648 27.3729 31.8458 27.1802 31.9612 27.0043C31.9885 26.9627 32.1548 26.7305 32.0666 26.8477C31.9787 26.9645 32.1569 26.7431 32.1906 26.7056C32.3308 26.5495 32.4956 26.4213 32.6407 26.2718C32.7265 26.1833 32.5807 26.3154 32.5721 26.3215C32.617 26.2894 32.661 26.2561 32.7065 26.2247C32.7859 26.17 32.8671 26.1183 32.9503 26.0696C33.0441 26.0146 33.15 25.9737 33.2409 25.9156C33.3482 25.8469 33.1588 25.9457 33.1554 25.9478C33.2044 25.9235 33.2557 25.9039 33.3084 25.8894C33.3969 25.858 33.7817 25.692 33.8624 25.7439C33.8587 25.7416 33.5702 25.7671 33.8034 25.7521C33.8586 25.7486 33.9134 25.7432 33.9686 25.7409C34.0803 25.7363 34.1915 25.7391 34.3031 25.7449C34.6055 25.7429 34.8949 25.6219 35.1087 25.408C35.3226 25.1941 35.4436 24.9045 35.4455 24.602C35.4391 24.3009 35.3166 24.014 35.1038 23.801C34.8909 23.5881 34.604 23.4656 34.303 23.4591Z" fill="#E6E6E6"/>
<path d="M50.2972 23.4591C49.3051 23.453 48.3331 23.7391 47.5024 24.2818C46.6717 24.8245 46.0191 25.5998 45.6259 26.511C45.186 27.4029 45.0502 28.4143 45.2393 29.3906C45.4284 30.367 45.9319 31.2545 46.6729 31.9175C47.3695 32.5104 48.2049 32.9169 49.1012 33.099C49.9974 33.2812 50.9252 33.233 51.7978 32.9591C52.6902 32.6473 53.4641 32.0664 54.0129 31.2965C54.5616 30.5266 54.8584 29.6054 54.8622 28.6598C54.9021 27.6107 54.6179 26.5747 54.0485 25.6928C53.4791 24.811 52.652 24.1259 51.6796 23.7309C51.3875 23.6515 51.0758 23.6908 50.8126 23.8403C50.5493 23.9899 50.3558 24.2374 50.2743 24.5291C50.2022 24.8211 50.2448 25.1296 50.3932 25.3911C50.5416 25.6526 50.7846 25.8473 51.0722 25.935C51.2713 26.0119 50.8903 25.8371 51.0762 25.9384C51.1527 25.9801 51.2305 26.0177 51.3056 26.0622C51.3694 26.1 51.4305 26.1414 51.4926 26.1819C51.7058 26.3212 51.3885 26.0797 51.5248 26.2049C51.643 26.3134 51.7601 26.4193 51.8676 26.5391C51.9082 26.5844 52.0674 26.7103 51.9437 26.6223C51.849 26.555 51.9072 26.5708 51.9437 26.6249C51.9713 26.6659 52.0006 26.7058 52.0279 26.7471C52.117 26.882 52.198 27.022 52.2704 27.1665C52.2872 27.1999 52.3026 27.2341 52.3196 27.2674C52.3516 27.3297 52.398 27.346 52.3228 27.268C52.2509 27.1934 52.2967 27.1985 52.3224 27.2702C52.3393 27.3174 52.3577 27.364 52.3742 27.4114C52.4278 27.5655 52.4727 27.7226 52.5089 27.8817C52.5256 27.9553 52.5391 28.0293 52.5535 28.1033C52.6045 28.3658 52.5461 27.9401 52.5584 28.1351C52.5687 28.2979 52.5807 28.4589 52.5779 28.6223C52.5766 28.6971 52.5733 28.7718 52.5681 28.8464C52.5655 28.8836 52.5613 28.9207 52.5589 28.958C52.547 29.1373 52.5467 28.8924 52.5717 28.8757C52.5195 29.0279 52.4849 29.1856 52.4685 29.3458C52.448 29.4168 52.4237 29.4863 52.4009 29.5566C52.3215 29.8018 52.4756 29.4229 52.3909 29.5905C52.3211 29.7345 52.2432 29.8744 52.1575 30.0094C52.1202 30.0659 51.9799 30.1937 52.0947 30.1048C52.2192 30.0083 52.0293 30.1744 51.9888 30.2172C51.9368 30.2721 51.8828 30.3251 51.8268 30.3762C51.791 30.4112 51.7531 30.4441 51.7135 30.4747C51.7062 30.471 51.9044 30.3423 51.7976 30.4104C51.6618 30.4971 51.5333 30.5897 51.3902 30.6651C51.3736 30.6739 51.1907 30.7587 51.1914 30.7617C51.1836 30.7308 51.4266 30.6761 51.2598 30.73C51.2247 30.7413 51.1903 30.755 51.1555 30.7668C51.0036 30.8179 50.8485 30.8592 50.6914 30.8904C50.6554 30.8976 50.6173 30.9012 50.5819 30.9104C50.4638 30.941 50.6947 30.8925 50.7017 30.8965C50.6144 30.8927 50.5269 30.9005 50.4417 30.9195C50.2796 30.9288 50.1171 30.9288 49.955 30.9195C49.9175 30.9173 49.88 30.9136 49.8425 30.9114C49.7555 30.9063 49.6916 30.8436 49.8075 30.9117C49.8968 30.9643 49.8894 30.9259 49.8102 30.9113C49.7732 30.9044 49.736 30.8987 49.699 30.8917C49.5385 30.8617 49.3798 30.8228 49.2237 30.7753C49.1397 30.7496 49.0573 30.7199 48.9744 30.6909C48.9383 30.6804 48.9031 30.6668 48.8693 30.6504C48.8688 30.641 49.083 30.7528 48.9699 30.6918C48.8272 30.6149 48.6796 30.5504 48.5403 30.4663C48.4659 30.4214 48.3945 30.3726 48.3222 30.3246C48.2904 30.3054 48.2601 30.2837 48.2318 30.2598C48.2342 30.2501 48.4089 30.4121 48.3172 30.3247C48.2012 30.2141 48.0771 30.1151 47.9672 29.9973C47.9421 29.9704 47.9183 29.9422 47.8933 29.9152L47.869 29.8875C47.8071 29.8118 47.8059 29.8121 47.8656 29.8885C47.9261 29.9064 47.9234 29.9729 47.8659 29.8865C47.8454 29.8558 47.8237 29.8259 47.8033 29.7951C47.7105 29.6628 47.6313 29.5215 47.5671 29.3733C47.5727 29.3689 47.6661 29.6483 47.5947 29.4375C47.5812 29.3976 47.566 29.3584 47.5528 29.3185C47.5265 29.2393 47.5034 29.1593 47.4834 29.0783C47.4637 28.9982 47.4536 28.9154 47.4336 28.8356C47.4001 28.701 47.4533 28.9418 47.4472 28.9358C47.4282 28.9169 47.4363 28.8002 47.4348 28.7723C47.4257 28.593 47.4461 28.4189 47.4493 28.2406C47.4518 28.1025 47.4379 28.3483 47.435 28.3411C47.4357 28.2997 47.443 28.2587 47.4567 28.2197C47.4774 28.1257 47.4966 28.0317 47.5219 27.9388C47.5509 27.8323 47.5843 27.7272 47.6221 27.6233C47.6362 27.5845 47.6534 27.5462 47.6665 27.507C47.7146 27.3635 47.5713 27.6803 47.6503 27.5509C47.759 27.3729 47.8399 27.1802 47.9553 27.0043C47.9827 26.9627 48.149 26.7305 48.0607 26.8477C47.9728 26.9645 48.151 26.7431 48.1848 26.7056C48.3249 26.5495 48.4897 26.4213 48.6348 26.2718C48.7207 26.1833 48.5748 26.3154 48.5662 26.3215C48.6112 26.2894 48.6552 26.2561 48.7007 26.2247C48.78 26.17 48.8613 26.1183 48.9445 26.0696C49.0382 26.0146 49.1442 25.9737 49.235 25.9156C49.3423 25.8469 49.1529 25.9457 49.1495 25.9478C49.1986 25.9235 49.2498 25.9039 49.3026 25.8894C49.3911 25.858 49.7758 25.692 49.8565 25.7439C49.8529 25.7416 49.5644 25.7671 49.7976 25.7521C49.8527 25.7486 49.9076 25.7432 49.9628 25.7409C50.0744 25.7363 50.1857 25.7391 50.2972 25.7449C50.5996 25.7429 50.889 25.6219 51.1029 25.408C51.3167 25.1941 51.4377 24.9045 51.4397 24.602C51.4332 24.3009 51.3108 24.014 51.0979 23.801C50.885 23.5881 50.5982 23.4656 50.2972 23.4591Z" fill="#E6E6E6"/>
<path d="M66.2923 23.4591C65.3002 23.453 64.3282 23.7391 63.4975 24.2818C62.6669 24.8245 62.0142 25.5998 61.621 26.511C61.1811 27.4029 61.0453 28.4143 61.2344 29.3906C61.4235 30.367 61.927 31.2545 62.668 31.9175C63.3646 32.5104 64.2 32.9169 65.0963 33.099C65.9925 33.2812 66.9203 33.233 67.7929 32.9591C68.6853 32.6473 69.4592 32.0664 70.008 31.2965C70.5568 30.5266 70.8535 29.6054 70.8573 28.6598C70.8972 27.6107 70.6131 26.5747 70.0436 25.6928C69.4742 24.811 68.6471 24.1259 67.6747 23.7309C67.3826 23.6515 67.0709 23.6908 66.8077 23.8403C66.5444 23.9899 66.3509 24.2374 66.2694 24.5291C66.1973 24.8211 66.2399 25.1296 66.3883 25.3911C66.5368 25.6526 66.7798 25.8473 67.0673 25.935C67.2664 26.0119 66.8854 25.8371 67.0713 25.9384C67.1478 25.9801 67.2257 26.0177 67.3007 26.0622C67.3645 26.1 67.4256 26.1414 67.4877 26.1819C67.701 26.3212 67.3836 26.0797 67.5199 26.2049C67.6381 26.3134 67.7553 26.4193 67.8627 26.5391C67.9033 26.5844 68.0625 26.7103 67.9388 26.6223C67.8442 26.555 67.9023 26.5708 67.9388 26.6249C67.9664 26.6659 67.9957 26.7058 68.0231 26.7471C68.1121 26.882 68.1931 27.022 68.2655 27.1665C68.2823 27.1999 68.2977 27.2341 68.3147 27.2674C68.3467 27.3297 68.3931 27.346 68.3179 27.268C68.246 27.1934 68.2918 27.1985 68.3175 27.2702C68.3344 27.3174 68.3529 27.364 68.3693 27.4114C68.4229 27.5655 68.4678 27.7226 68.504 27.8817C68.5208 27.9553 68.5342 28.0293 68.5486 28.1033C68.5996 28.3658 68.5412 27.9401 68.5535 28.1351C68.5638 28.2979 68.5758 28.4589 68.573 28.6223C68.5717 28.6971 68.5684 28.7718 68.5632 28.8464C68.5606 28.8836 68.5564 28.9207 68.554 28.958C68.5421 29.1373 68.5418 28.8924 68.5669 28.8757C68.5146 29.0279 68.48 29.1856 68.4636 29.3458C68.4431 29.4168 68.4188 29.4863 68.3961 29.5566C68.3166 29.8018 68.4707 29.4229 68.386 29.5905C68.3163 29.7345 68.2383 29.8744 68.1526 30.0094C68.1154 30.0659 67.975 30.1937 68.0898 30.1048C68.2143 30.0083 68.0245 30.1744 67.984 30.2172C67.9319 30.2721 67.8779 30.3251 67.8219 30.3762C67.7861 30.4112 67.7483 30.4441 67.7086 30.4747C67.7014 30.471 67.8995 30.3423 67.7927 30.4104C67.657 30.4971 67.5284 30.5897 67.3854 30.6651C67.3687 30.6739 67.1858 30.7587 67.1866 30.7617C67.1787 30.7308 67.4217 30.6761 67.2549 30.73C67.2198 30.7413 67.1855 30.755 67.1506 30.7668C66.9987 30.8179 66.8437 30.8592 66.6865 30.8904C66.6505 30.8976 66.6124 30.9012 66.577 30.9104C66.4589 30.941 66.6898 30.8925 66.6968 30.8965C66.6095 30.8927 66.5221 30.9005 66.4368 30.9195C66.2747 30.9288 66.1122 30.9288 65.9501 30.9195C65.9126 30.9173 65.8752 30.9136 65.8377 30.9114C65.7506 30.9063 65.6867 30.8436 65.8026 30.9117C65.8919 30.9643 65.8845 30.9259 65.8053 30.9113C65.7683 30.9044 65.7311 30.8987 65.6941 30.8917C65.5336 30.8617 65.375 30.8228 65.2188 30.7753C65.1348 30.7496 65.0524 30.7199 64.9695 30.6909C64.9334 30.6804 64.8983 30.6668 64.8644 30.6504C64.8639 30.641 65.0781 30.7528 64.965 30.6918C64.8223 30.6149 64.6747 30.5504 64.5354 30.4663C64.461 30.4214 64.3896 30.3726 64.3173 30.3246C64.2855 30.3054 64.2553 30.2837 64.2269 30.2598C64.2293 30.2501 64.404 30.4121 64.3123 30.3247C64.1963 30.2141 64.0722 30.1151 63.9623 29.9973C63.9372 29.9704 63.9134 29.9422 63.8884 29.9152L63.8641 29.8875C63.8022 29.8118 63.8011 29.8121 63.8607 29.8885C63.9212 29.9064 63.9185 29.9729 63.861 29.8865C63.8406 29.8558 63.8188 29.8259 63.7984 29.7951C63.7056 29.6628 63.6265 29.5215 63.5622 29.3733C63.5678 29.3689 63.6612 29.6483 63.5898 29.4375C63.5763 29.3976 63.5611 29.3584 63.5479 29.3185C63.5216 29.2393 63.4985 29.1593 63.4786 29.0783C63.4588 28.9982 63.4487 28.9154 63.4288 28.8356C63.3952 28.701 63.4484 28.9418 63.4423 28.9358C63.4233 28.9169 63.4314 28.8002 63.4299 28.7723C63.4208 28.593 63.4412 28.4189 63.4444 28.2406C63.4469 28.1025 63.433 28.3483 63.4301 28.3411C63.4308 28.2997 63.4381 28.2587 63.4518 28.2197C63.4725 28.1257 63.4917 28.0317 63.5171 27.9388C63.546 27.8323 63.5794 27.7272 63.6172 27.6233C63.6313 27.5845 63.6485 27.5462 63.6616 27.507C63.7097 27.3635 63.5664 27.6803 63.6454 27.5509C63.7541 27.3729 63.8351 27.1802 63.9505 27.0043C63.9778 26.9627 64.1441 26.7305 64.0558 26.8477C63.9679 26.9645 64.1461 26.7431 64.1799 26.7056C64.32 26.5495 64.4848 26.4213 64.6299 26.2718C64.7158 26.1833 64.57 26.3154 64.5614 26.3215C64.6063 26.2894 64.6503 26.2561 64.6958 26.2247C64.7751 26.17 64.8564 26.1183 64.9396 26.0696C65.0333 26.0146 65.1393 25.9737 65.2301 25.9156C65.3374 25.8469 65.148 25.9457 65.1447 25.9478C65.1937 25.9235 65.2449 25.9039 65.2977 25.8894C65.3862 25.858 65.7709 25.692 65.8516 25.7439C65.848 25.7416 65.5595 25.7671 65.7927 25.7521C65.8478 25.7486 65.9027 25.7432 65.9579 25.7409C66.0695 25.7363 66.1808 25.7391 66.2923 25.7449C66.5947 25.7429 66.8842 25.6219 67.098 25.408C67.3118 25.1941 67.4328 24.9045 67.4348 24.602C67.4283 24.3009 67.3059 24.014 67.093 23.801C66.8801 23.5881 66.5933 23.4656 66.2923 23.4591Z" fill="#E6E6E6"/>
<path d="M297.355 276.581H17.1412C13.5979 276.577 10.2008 275.167 7.69528 272.66C5.18973 270.154 3.78035 266.756 3.77637 263.211V13.3699C3.78034 9.82517 5.18969 6.42681 7.69523 3.92033C10.2008 1.41386 13.5979 0.00397486 17.1412 0H297.355C300.898 0.00397487 304.295 1.41385 306.801 3.92033C309.306 6.42681 310.715 9.82517 310.719 13.3699V263.211C310.715 266.756 309.306 270.154 306.801 272.66C304.295 275.167 300.898 276.577 297.355 276.581ZM17.1412 1.52386C14.0018 1.52743 10.9919 2.77664 8.77192 4.99742C6.55197 7.2182 5.30323 10.2292 5.29966 13.3699V263.211C5.30331 266.352 6.55209 269.363 8.77204 271.583C10.992 273.804 14.0018 275.053 17.1412 275.057H297.355C300.494 275.053 303.504 273.804 305.724 271.583C307.944 269.363 309.192 266.352 309.196 263.211V13.3699C309.193 10.2292 307.944 7.2182 305.724 4.99742C303.504 2.77664 300.494 1.52744 297.355 1.52386H17.1412Z" fill="#E6E6E6"/>
<path d="M16.6768 169.991L115.218 169.691L213.256 169.393L268.56 169.224C268.856 169.214 269.137 169.089 269.342 168.876C269.548 168.663 269.663 168.378 269.663 168.081C269.663 167.785 269.548 167.5 269.342 167.287C269.137 167.074 268.856 166.949 268.56 166.938L170.019 167.238L71.9804 167.537L16.6768 167.705C16.3807 167.715 16.1001 167.84 15.8942 168.053C15.6883 168.267 15.5732 168.551 15.5732 168.848C15.5732 169.144 15.6883 169.429 15.8942 169.642C16.1001 169.856 16.3807 169.98 16.6768 169.991Z" fill="#E6E6E6"/>
<path d="M66.3896 168.138L66.9989 132.147C67.0239 130.675 64.7389 130.675 64.714 132.147L64.1047 168.138C64.0798 169.609 66.3647 169.61 66.3896 168.138Z" fill="#E6E6E6"/>
<path d="M113.486 168.527L114.971 123.288L115.395 110.363C115.443 108.891 113.158 108.893 113.11 110.363L111.625 155.602L111.201 168.527C111.153 169.999 113.438 169.997 113.486 168.527Z" fill="#E6E6E6"/>
<path d="M160.456 88.918C159.56 104.941 157.903 152.204 157.007 168.227C156.925 169.697 159.21 169.692 159.292 168.227C160.188 152.204 161.845 104.941 162.741 88.918C162.823 87.4482 160.538 87.4529 160.456 88.918Z" fill="#E6E6E6"/>
<path d="M207.199 152.149L206.919 167.55C206.892 169.021 209.177 169.021 209.204 167.55C209.535 149.36 210.383 149.953 210.477 144.819C210.503 143.348 208.218 143.348 208.192 144.819C208.192 144.819 207.53 133.959 207.199 152.149Z" fill="#E6E6E6"/>
<path d="M252.983 111.69L253.242 154.898L253.316 167.27C253.326 167.567 253.451 167.847 253.664 168.053C253.877 168.259 254.162 168.374 254.458 168.374C254.755 168.374 255.039 168.259 255.253 168.053C255.466 167.847 255.59 167.567 255.601 167.27L255.342 124.062L255.268 111.69C255.258 111.394 255.133 111.113 254.92 110.907C254.707 110.701 254.422 110.586 254.126 110.586C253.83 110.586 253.545 110.701 253.332 110.907C253.119 111.113 252.994 111.394 252.983 111.69Z" fill="#E6E6E6"/>
<path d="M16.8612 168.705C14.9699 163.506 19.2334 158.505 23.6142 156.258C28.8627 153.566 34.9004 152.956 40.2046 150.36C48.1122 146.491 53.8718 139.547 58.9969 132.597C64.2719 125.443 69.0984 117.765 75.8012 111.821C79.3332 108.619 83.5048 106.204 88.0398 104.736C93.7539 102.952 99.814 102.829 105.718 103.548C117.919 105.034 129.229 110.075 141.001 113.279C152.099 116.299 164.328 117.998 175.222 113.301C180.757 110.914 185.283 106.911 190.144 103.448C194.849 100.06 200.109 97.5218 205.688 95.9468C216.624 92.9047 228.566 93.717 238.747 98.8596C248.106 103.526 255.516 111.35 259.67 120.95C264.496 132.484 263.868 145.374 262.291 157.515C261.884 160.653 261.399 163.781 260.908 166.907C260.683 168.346 262.884 168.966 263.112 167.514C265.075 154.995 267.032 142.08 264.589 129.482C262.477 118.482 256.431 108.628 247.581 101.765C238.694 94.8841 227.647 91.3962 216.421 91.9279C210.539 92.201 204.748 93.4895 199.304 95.7363C193.653 98.0746 188.868 101.54 184.007 105.187C179.01 108.937 173.858 112.038 167.654 113.261C161.636 114.447 155.375 114.002 149.383 112.882C137.02 110.572 125.496 105.274 113.238 102.56C101.88 100.046 89.6249 99.7943 79.4547 106.213C71.6315 111.15 66.1036 118.815 60.7984 126.217C55.5397 133.553 50.2145 141.398 42.5249 146.41C37.8342 149.467 32.5612 150.595 27.3139 152.314C22.053 154.038 17.0024 156.946 14.8573 162.338C13.9328 164.559 13.8618 167.043 14.6579 169.313C15.1568 170.684 17.3657 170.092 16.8612 168.705Z" fill="#E6E6E6"/>
<path d="M65.6322 127.17L65.6289 127.172L65.6355 127.17H65.6322Z" fill="#E6E6E6"/>
<path d="M69.5937 125.068C69.0656 124.132 68.2231 123.414 67.2159 123.041C66.2087 122.668 65.1019 122.665 64.0922 123.031C63.5903 123.214 63.1302 123.496 62.7392 123.86C62.3482 124.225 62.0341 124.664 61.8156 125.151C61.7719 125.255 61.7463 125.364 61.7106 125.47C61.6611 125.55 61.6016 125.623 61.5572 125.706C61.0837 126.65 60.954 127.73 61.1906 128.759C61.4271 129.789 62.0151 130.703 62.8532 131.346C63.6914 131.988 64.7272 132.318 65.7823 132.279C66.8373 132.239 67.8457 131.833 68.6335 131.13C69.4616 130.381 70.0084 129.371 70.1831 128.268C70.3578 127.165 70.1498 126.036 69.5937 125.068ZM66.732 127.009C66.7379 127.119 66.7414 127.066 66.732 127.009V127.009ZM66.4411 126.347C66.4299 126.334 66.4313 126.336 66.4411 126.347V126.347ZM65.159 126.863C65.1402 126.832 65.1419 126.836 65.159 126.863V126.863ZM65.4629 127.121C65.5066 127.14 65.5353 127.145 65.4629 127.121V127.121ZM65.5986 127.185L65.6287 127.171C65.6213 127.172 65.6139 127.171 65.6074 127.167L65.6083 127.167L65.6318 127.17L65.6363 127.168L65.6226 127.165C65.6344 127.164 65.6355 127.166 65.6363 127.168C65.7722 127.106 65.6805 127.136 65.6017 127.16L65.5964 127.159C65.5472 127.134 65.4943 127.117 65.4398 127.109C65.4347 127.106 65.4287 127.104 65.4245 127.101C65.3808 127.069 65.1597 126.897 65.3648 127.078C65.3202 127.038 65.276 127 65.2341 126.957C65.2093 126.932 65.1869 126.904 65.167 126.875C65.1401 126.829 65.114 126.782 65.0888 126.735L65.0849 126.71C65.0816 126.689 65.0791 126.68 65.0763 126.667C65.0776 126.654 65.0797 126.64 65.0817 126.626C65.097 126.585 65.1068 126.542 65.1108 126.499L65.1196 126.488C65.1524 126.442 65.1811 126.388 65.2125 126.341C65.0469 126.592 65.2772 126.313 65.2944 126.277C65.2973 126.271 65.2922 126.275 65.2935 126.271C65.3002 126.267 65.2981 126.269 65.3062 126.265C65.3576 126.234 65.4062 126.201 65.4583 126.172C65.5203 126.137 65.7648 126.068 65.5113 126.14C65.5689 126.124 65.6242 126.103 65.6824 126.088C65.6929 126.085 65.7783 126.073 65.8242 126.065C65.8646 126.064 65.9038 126.063 65.9079 126.063C65.9269 126.063 65.9458 126.065 65.9648 126.066C65.9227 126.072 66.1092 126.112 66.1646 126.121C66.1726 126.127 66.1767 126.131 66.1875 126.139C66.2343 126.173 66.2913 126.204 66.3407 126.236C66.1198 126.093 66.3436 126.247 66.3858 126.289C66.411 126.314 66.4343 126.341 66.458 126.368C66.4798 126.393 66.4995 126.42 66.5169 126.449C66.5531 126.515 66.5916 126.582 66.6297 126.648L66.6403 126.664C66.6401 126.667 66.6399 126.669 66.6399 126.671C66.6598 126.777 66.6891 126.881 66.7274 126.982C66.7293 126.99 66.7308 126.999 66.7318 127.007C66.7353 127.065 66.7401 127.123 66.7403 127.182L66.7397 127.193C66.5638 127.102 66.3686 127.053 66.1701 127.052C65.9717 127.05 65.7758 127.096 65.5986 127.185Z" fill="#E6E6E6"/>
<path d="M65.6392 127.169C65.6419 127.17 65.6387 127.17 65.6387 127.17L65.6392 127.169Z" fill="#E6E6E6"/>
<path d="M65.6393 127.17L65.6348 127.171C65.6405 127.171 65.6393 127.17 65.6393 127.17Z" fill="#E6E6E6"/>
<path d="M65.6367 127.168L65.6387 127.169L65.6367 127.168Z" fill="#E6E6E6"/>
<path d="M114.377 105.836L114.374 105.838L114.381 105.836H114.377Z" fill="#E6E6E6"/>
<path d="M118.339 103.734C117.811 102.798 116.968 102.08 115.961 101.707C114.954 101.334 113.847 101.331 112.837 101.697C112.335 101.88 111.875 102.162 111.484 102.526C111.093 102.891 110.779 103.33 110.561 103.817C110.517 103.921 110.491 104.03 110.456 104.136C110.406 104.216 110.347 104.289 110.302 104.372C109.829 105.316 109.699 106.396 109.936 107.425C110.172 108.455 110.76 109.369 111.598 110.012C112.436 110.654 113.472 110.984 114.527 110.945C115.582 110.905 116.591 110.499 117.379 109.796C118.207 109.047 118.754 108.037 118.928 106.934C119.103 105.831 118.895 104.702 118.339 103.734ZM115.477 105.675C115.483 105.785 115.486 105.732 115.477 105.675V105.675ZM115.186 105.013C115.175 105 115.176 105.002 115.186 105.013V105.013ZM113.904 105.529C113.885 105.498 113.887 105.502 113.904 105.529V105.529ZM114.208 105.787C114.252 105.806 114.28 105.811 114.208 105.787V105.787ZM114.344 105.851L114.374 105.837C114.366 105.838 114.359 105.837 114.352 105.833L114.353 105.833L114.377 105.836L114.381 105.834L114.368 105.831C114.379 105.83 114.381 105.832 114.381 105.834C114.517 105.772 114.426 105.802 114.347 105.826L114.341 105.825C114.292 105.8 114.239 105.783 114.185 105.775C114.18 105.772 114.174 105.77 114.17 105.767C114.126 105.735 113.905 105.563 114.11 105.744C114.065 105.704 114.021 105.666 113.979 105.623C113.954 105.598 113.932 105.57 113.912 105.541C113.885 105.495 113.859 105.448 113.834 105.401L113.83 105.376C113.827 105.355 113.824 105.346 113.821 105.333C113.823 105.32 113.825 105.306 113.827 105.292C113.842 105.251 113.852 105.208 113.856 105.165L113.865 105.154C113.897 105.108 113.926 105.054 113.958 105.007C113.792 105.258 114.022 104.979 114.039 104.944C114.042 104.937 114.037 104.941 114.039 104.937C114.045 104.933 114.043 104.935 114.051 104.931C114.103 104.9 114.151 104.867 114.203 104.838C114.265 104.803 114.51 104.734 114.256 104.807C114.314 104.79 114.369 104.769 114.427 104.754C114.438 104.751 114.523 104.739 114.569 104.731C114.61 104.73 114.649 104.729 114.653 104.729C114.672 104.729 114.691 104.731 114.71 104.732C114.668 104.738 114.854 104.778 114.91 104.787C114.918 104.793 114.922 104.797 114.933 104.805C114.979 104.839 115.036 104.87 115.086 104.902C114.865 104.759 115.089 104.913 115.131 104.955C115.156 104.98 115.179 105.007 115.203 105.034C115.225 105.059 115.245 105.086 115.262 105.115C115.298 105.181 115.337 105.248 115.375 105.314L115.385 105.33C115.385 105.333 115.385 105.335 115.385 105.337C115.405 105.443 115.434 105.547 115.473 105.648C115.474 105.656 115.476 105.665 115.477 105.673C115.48 105.731 115.485 105.789 115.485 105.848L115.485 105.859C115.309 105.768 115.114 105.719 114.915 105.718C114.717 105.716 114.521 105.762 114.344 105.851Z" fill="#E6E6E6"/>
<path d="M114.384 105.836L114.38 105.837C114.386 105.837 114.384 105.836 114.384 105.836Z" fill="#E6E6E6"/>
<path d="M114.382 105.834L114.384 105.835L114.382 105.834Z" fill="#E6E6E6"/>
<path d="M114.384 105.834C114.387 105.835 114.384 105.835 114.384 105.835L114.384 105.834Z" fill="#E6E6E6"/>
<path d="M161.604 116.501L161.606 116.502L161.604 116.501Z" fill="#E6E6E6"/>
<path d="M165.56 82.3997C165.032 81.4641 164.19 80.7462 163.183 80.3732C162.175 80.0003 161.069 79.9966 160.059 80.3628C159.557 80.5461 159.097 80.8282 158.706 81.1924C158.315 81.5566 158.001 81.9956 157.782 82.4834C157.739 82.587 157.713 82.696 157.677 82.8022C157.628 82.8823 157.568 82.9546 157.524 83.0384C157.05 83.9824 156.921 85.0621 157.157 86.0914C157.394 87.1208 157.982 88.0354 158.82 88.6778C159.658 89.3201 160.694 89.65 161.749 89.6106C162.804 89.5711 163.812 89.1649 164.6 88.4617C165.428 87.7129 165.975 86.7031 166.15 85.6002C166.325 84.4974 166.117 83.3679 165.56 82.3997ZM162.699 84.3408C162.705 84.4515 162.708 84.3985 162.699 84.3408V84.3408ZM162.408 83.6791C162.397 83.6662 162.398 83.6676 162.408 83.6791V83.6791ZM161.126 84.1949C161.107 84.164 161.109 84.1684 161.126 84.1949V84.1949ZM161.43 84.4526C161.473 84.4721 161.502 84.4773 161.43 84.4526V84.4526ZM161.565 84.5173L161.595 84.5035C161.588 84.5042 161.581 84.5027 161.574 84.4993L161.575 84.4991L161.599 84.5021L161.603 84.5001L161.589 84.4969C161.601 84.4965 161.602 84.4982 161.603 84.5001C161.739 84.4378 161.647 84.4676 161.568 84.4921L161.563 84.4908C161.514 84.4658 161.461 84.4489 161.406 84.4406C161.401 84.4377 161.395 84.4357 161.391 84.4327C161.348 84.4015 161.126 84.2287 161.332 84.4099C161.287 84.3704 161.243 84.3317 161.201 84.2891C161.176 84.2637 161.154 84.2361 161.134 84.2067C161.107 84.1606 161.081 84.114 161.055 84.067L161.052 84.0416C161.048 84.0206 161.046 84.0118 161.043 83.9992C161.044 83.9861 161.046 83.9721 161.048 83.9585C161.064 83.9173 161.074 83.8744 161.078 83.8307L161.086 83.8195C161.119 83.7737 161.148 83.7203 161.179 83.6727C161.014 83.9243 161.244 83.6449 161.261 83.6095C161.264 83.6035 161.259 83.6068 161.26 83.6026C161.267 83.5989 161.265 83.6014 161.273 83.5967C161.324 83.5665 161.373 83.5327 161.425 83.5039C161.487 83.4695 161.732 83.4 161.478 83.4725C161.536 83.4561 161.591 83.4353 161.649 83.4201C161.66 83.4173 161.745 83.4054 161.791 83.3971C161.831 83.3961 161.871 83.3949 161.875 83.3949C161.894 83.3951 161.913 83.3975 161.932 83.3983C161.889 83.4039 162.076 83.4442 162.131 83.4528C162.139 83.459 162.143 83.4631 162.154 83.471C162.201 83.5053 162.258 83.5357 162.307 83.5676C162.087 83.4248 162.31 83.579 162.353 83.6212C162.378 83.6464 162.401 83.6734 162.425 83.6999C162.447 83.7252 162.466 83.7522 162.484 83.7807C162.52 83.8471 162.558 83.9143 162.596 83.9796L162.607 83.9964C162.607 83.9985 162.607 84.0007 162.607 84.0029C162.627 84.1089 162.656 84.2128 162.694 84.3136C162.696 84.3221 162.698 84.3307 162.699 84.3394C162.702 84.3974 162.707 84.4553 162.707 84.5136L162.707 84.5254C162.531 84.4337 162.335 84.3851 162.137 84.3837C161.939 84.3822 161.743 84.4281 161.565 84.5173Z" fill="#E6E6E6"/>
<path d="M161.599 116.503L161.596 116.505L161.602 116.503H161.599Z" fill="#E6E6E6"/>
<path d="M161.606 116.503L161.602 116.504C161.607 116.504 161.606 116.503 161.606 116.503Z" fill="#E6E6E6"/>
<path d="M161.606 116.501C161.609 116.502 161.605 116.502 161.605 116.502L161.606 116.501Z" fill="#E6E6E6"/>
<path d="M213.545 141.068C213.017 140.132 212.174 139.414 211.167 139.041C210.16 138.668 209.053 138.665 208.043 139.031C207.541 139.214 207.081 139.496 206.69 139.86C206.299 140.225 205.985 140.664 205.767 141.151C205.723 141.255 205.697 141.364 205.662 141.47C205.612 141.55 205.553 141.623 205.508 141.706C205.035 142.65 204.905 143.73 205.142 144.759C205.378 145.789 205.966 146.703 206.804 147.346C207.643 147.988 208.678 148.318 209.733 148.279C210.789 148.239 211.797 147.833 212.585 147.13C213.413 146.381 213.96 145.371 214.134 144.268C214.309 143.165 214.101 142.036 213.545 141.068ZM210.683 143.009C210.689 143.119 210.693 143.066 210.683 143.009V143.009ZM210.392 142.347C210.381 142.334 210.382 142.336 210.392 142.347V142.347ZM209.11 142.863C209.091 142.832 209.093 142.836 209.11 142.863V142.863ZM209.414 143.121C209.458 143.14 209.486 143.145 209.414 143.121V143.121ZM209.55 143.185L209.58 143.171C209.572 143.172 209.565 143.171 209.559 143.167L209.559 143.167L209.583 143.17L209.587 143.168L209.574 143.165C209.586 143.164 209.587 143.166 209.587 143.168C209.723 143.106 209.632 143.136 209.553 143.16L209.548 143.159C209.498 143.134 209.445 143.117 209.391 143.109C209.386 143.106 209.38 143.104 209.376 143.101C209.332 143.069 209.111 142.897 209.316 143.078C209.271 143.038 209.227 143 209.185 142.957C209.16 142.932 209.138 142.904 209.118 142.875C209.091 142.829 209.065 142.782 209.04 142.735L209.036 142.71C209.033 142.689 209.03 142.68 209.027 142.667C209.029 142.654 209.031 142.64 209.033 142.626C209.048 142.585 209.058 142.542 209.062 142.499L209.071 142.488C209.104 142.442 209.132 142.388 209.164 142.341C208.998 142.592 209.228 142.313 209.246 142.277C209.248 142.271 209.243 142.275 209.245 142.271C209.251 142.267 209.249 142.269 209.257 142.265C209.309 142.234 209.357 142.201 209.409 142.172C209.471 142.137 209.716 142.068 209.462 142.14C209.52 142.124 209.575 142.103 209.633 142.088C209.644 142.085 209.729 142.073 209.775 142.065C209.816 142.064 209.855 142.063 209.859 142.063C209.878 142.063 209.897 142.065 209.916 142.066C209.874 142.072 210.06 142.112 210.116 142.121C210.124 142.127 210.128 142.131 210.139 142.139C210.185 142.173 210.242 142.204 210.292 142.236C210.071 142.093 210.295 142.247 210.337 142.289C210.362 142.314 210.385 142.341 210.409 142.368C210.431 142.393 210.451 142.42 210.468 142.449C210.504 142.515 210.543 142.582 210.581 142.648L210.591 142.664C210.591 142.667 210.591 142.669 210.591 142.671C210.611 142.777 210.64 142.881 210.679 142.982C210.68 142.99 210.682 142.999 210.683 143.007C210.686 143.065 210.691 143.123 210.691 143.182L210.691 143.193C210.515 143.102 210.32 143.053 210.121 143.052C209.923 143.05 209.727 143.096 209.55 143.185Z" fill="#E6E6E6"/>
<path d="M209.583 92.8828L209.58 92.8845L209.587 92.8828H209.583Z" fill="#E6E6E6"/>
<path d="M209.59 92.8828L209.586 92.8835C209.592 92.8841 209.59 92.8828 209.59 92.8828Z" fill="#E6E6E6"/>
<path d="M209.589 92.8818C209.592 92.8827 209.589 92.8828 209.589 92.8828L209.589 92.8818Z" fill="#E6E6E6"/>
<path d="M209.587 92.8809L209.589 92.8819L209.587 92.8809Z" fill="#E6E6E6"/>
<path d="M258.481 106.019C257.953 105.083 257.111 104.365 256.104 103.992C255.096 103.619 253.99 103.616 252.98 103.982C252.478 104.165 252.018 104.447 251.627 104.812C251.236 105.176 250.922 105.615 250.703 106.102C250.66 106.206 250.634 106.315 250.598 106.421C250.549 106.501 250.489 106.574 250.445 106.658C249.971 107.602 249.842 108.681 250.078 109.711C250.315 110.74 250.903 111.655 251.741 112.297C252.579 112.939 253.615 113.269 254.67 113.23C255.725 113.19 256.733 112.784 257.521 112.081C258.349 111.332 258.896 110.322 259.071 109.219C259.245 108.117 259.037 106.987 258.481 106.019ZM255.62 107.96C255.626 108.071 255.629 108.018 255.62 107.96V107.96ZM255.329 107.298C255.318 107.285 255.319 107.287 255.329 107.298V107.298ZM254.047 107.814C254.028 107.783 254.03 107.788 254.047 107.814V107.814ZM254.351 108.072C254.394 108.091 254.423 108.096 254.351 108.072V108.072ZM254.486 108.136L254.516 108.123C254.509 108.123 254.502 108.122 254.495 108.118L254.496 108.118L254.519 108.121L254.524 108.119L254.51 108.116C254.522 108.116 254.523 108.117 254.524 108.119C254.66 108.057 254.568 108.087 254.489 108.111L254.484 108.11C254.435 108.085 254.382 108.068 254.327 108.06C254.322 108.057 254.316 108.055 254.312 108.052C254.268 108.021 254.047 107.848 254.252 108.029C254.208 107.99 254.164 107.951 254.122 107.908C254.097 107.883 254.075 107.855 254.055 107.826C254.028 107.78 254.002 107.733 253.976 107.686L253.973 107.661C253.969 107.64 253.967 107.631 253.964 107.618C253.965 107.605 253.967 107.591 253.969 107.578C253.985 107.536 253.994 107.494 253.998 107.45L254.007 107.439C254.04 107.393 254.069 107.339 254.1 107.292C253.935 107.543 254.165 107.264 254.182 107.229C254.185 107.223 254.18 107.226 254.181 107.222C254.188 107.218 254.186 107.221 254.194 107.216C254.245 107.186 254.294 107.152 254.346 107.123C254.408 107.089 254.652 107.019 254.399 107.092C254.457 107.075 254.512 107.054 254.57 107.039C254.581 107.036 254.666 107.025 254.712 107.016C254.752 107.015 254.791 107.014 254.796 107.014C254.815 107.014 254.833 107.017 254.852 107.017C254.81 107.023 254.997 107.063 255.052 107.072C255.06 107.078 255.064 107.082 255.075 107.09C255.122 107.124 255.179 107.155 255.228 107.187C255.007 107.044 255.231 107.198 255.273 107.24C255.299 107.266 255.322 107.293 255.346 107.319C255.367 107.344 255.387 107.371 255.405 107.4C255.441 107.466 255.479 107.533 255.517 107.599L255.528 107.616C255.528 107.618 255.528 107.62 255.528 107.622C255.547 107.728 255.577 107.832 255.615 107.933C255.617 107.941 255.618 107.95 255.619 107.959C255.623 108.017 255.628 108.074 255.628 108.133L255.627 108.145C255.451 108.053 255.256 108.004 255.058 108.003C254.859 108.001 254.664 108.047 254.486 108.136Z" fill="#E6E6E6"/>
<path d="M254.52 108.122L254.517 108.124L254.523 108.122H254.52Z" fill="#E6E6E6"/>
<path d="M254.524 108.119L254.526 108.12L254.524 108.119Z" fill="#E6E6E6"/>
<path d="M254.527 108.12C254.53 108.121 254.526 108.121 254.526 108.121L254.527 108.12Z" fill="#E6E6E6"/>
<path d="M254.527 108.121L254.522 108.122C254.528 108.122 254.527 108.121 254.527 108.121Z" fill="#E6E6E6"/>
<path d="M242.206 143.039L206.792 145.009C206.592 145.02 206.396 144.954 206.244 144.824C206.091 144.695 205.994 144.512 205.972 144.313C205.951 144.114 206.006 143.915 206.127 143.756C206.248 143.596 206.426 143.49 206.623 143.458L242.82 137.565L242.206 143.039Z" fill="#3F3D56"/>
<path d="M287.211 221.911L300.557 199.451L310.42 204.112C310.42 204.112 293.424 225.348 292.883 225.959C293.114 226.991 293.028 228.069 292.634 229.051C292.24 230.033 291.557 230.872 290.676 231.457C289.795 232.042 288.757 232.346 287.699 232.328C286.642 232.31 285.615 231.972 284.754 231.357C283.893 230.743 283.239 229.882 282.878 228.887C282.517 227.893 282.466 226.812 282.733 225.788C282.999 224.764 283.57 223.846 284.37 223.153C285.169 222.461 286.16 222.028 287.211 221.911Z" fill="#FFB6B6"/>
<path d="M292.763 169.738L314.384 181.023C315.735 181.997 316.868 183.242 317.711 184.679C318.554 186.116 319.088 187.712 319.279 189.367C319.469 191.022 319.313 192.699 318.819 194.29C318.325 195.881 317.505 197.351 316.41 198.607L301.505 215.712L295.011 206.91L300.016 196.441L290.325 193.884L292.763 169.738Z" fill="#45B34A"/>
<path d="M231.148 143.407L228.713 169.421L217.805 169.44C217.805 169.44 224.063 142.966 224.291 142.181C223.639 141.348 223.256 140.337 223.191 139.281C223.126 138.225 223.384 137.174 223.929 136.268C224.474 135.361 225.282 134.642 226.245 134.205C227.208 133.767 228.281 133.633 229.322 133.819C230.363 134.005 231.323 134.503 232.075 135.246C232.827 135.99 233.336 136.945 233.534 137.984C233.732 139.023 233.61 140.098 233.184 141.066C232.758 142.035 232.048 142.851 231.148 143.407Z" fill="#FFB6B6"/>
<path d="M252.863 196.605L227.755 191.999C217.183 190.727 212.844 183.768 214.751 176.98L220.891 155.136L230.529 160.305L230.492 171.909L243.983 170.064L252.863 196.605Z" fill="#45B34A"/>
<path d="M242.585 376.388H235.682L232.397 349.749H242.587L242.585 376.388Z" fill="#FFB6B6"/>
<path d="M242.828 383.592L221.599 383.591V383.322C221.599 381.13 222.469 379.028 224.019 377.478C225.569 375.927 227.67 375.056 229.862 375.056L233.74 372.113L240.975 375.057L242.829 375.057L242.828 383.592Z" fill="#2F2E41"/>
<path d="M291.433 376.388H298.337L301.621 349.749H291.432L291.433 376.388Z" fill="#FFB6B6"/>
<path d="M291.19 383.592L312.419 383.591V383.322C312.419 381.13 311.549 379.028 309.999 377.478C308.449 375.927 306.348 375.056 304.156 375.056L300.278 372.113L293.043 375.057L291.189 375.057L291.19 383.592Z" fill="#2F2E41"/>
<path d="M232.093 330.173C232.195 328.653 233.006 320.247 233.006 320.247L234.948 302.42L238.37 255.163L241.421 242.742L256.521 248.627L268.773 242.751L283.337 247.408L294.677 251.662C294.677 251.662 294.696 253.483 294.784 255.683C294.9 258.563 295.104 262.093 295.589 263.011C296.4 264.633 296.196 273.34 296.196 273.34C296.196 273.34 297.002 291.056 298.017 292.998C299.031 294.941 299.235 298.986 298.929 299.797C298.623 300.608 299.944 321.883 299.944 321.883C299.944 321.883 303.333 359.533 301.206 365.21C299.08 370.887 291.046 367.168 291.046 367.168C291.046 367.168 291.434 365.653 289.104 364.939C286.774 364.225 279.676 310.84 279.676 310.84C279.676 310.84 278.356 299.894 277.142 296.757C275.929 293.62 274.812 284.806 274.812 284.806C274.812 284.806 267.317 270.218 267.22 266.974C267.22 266.974 266.239 263.939 265.312 267.28C264.385 270.621 261.652 278.624 261.652 278.624L258.987 288.453L255.851 303.138L253.822 315.502C253.822 315.502 250.783 331.911 250.297 332.621C249.812 333.33 250.297 348.321 250.297 348.321C250.297 348.321 247.948 361.088 244.627 363.317C241.307 365.546 232.51 363.352 232.51 363.352C232.51 363.352 231.991 331.693 232.093 330.173Z" fill="#2F2E41"/>
<path d="M243.381 202.774L241.452 227.779L238.553 230.78C238.292 231.051 238.087 231.371 237.953 231.723C237.818 232.074 237.756 232.449 237.77 232.825C237.783 233.201 237.873 233.571 238.032 233.911C238.192 234.252 238.419 234.557 238.699 234.808L237.102 237.547L236.537 246.18C236.376 246.852 236.365 247.551 236.505 248.228C236.645 248.904 236.932 249.541 237.347 250.094C237.761 250.646 238.293 251.1 238.903 251.423C239.513 251.746 240.188 251.931 240.877 251.963L290.866 254.313C291.552 254.345 292.236 254.226 292.871 253.964C293.506 253.703 294.076 253.305 294.541 252.799C295.005 252.293 295.353 251.691 295.559 251.036C295.766 250.381 295.826 249.689 295.735 249.008L291.485 216.996V214.603L289.582 209.98L290.56 194.494L292.835 169.916L279.611 166.498L272.441 161.563L259.984 161.762L252.426 167.972L242.348 169.551L234.727 171.066L233.756 173.177L235.698 172.755L242.736 200.216L243.381 202.774Z" fill="#45B34A"/>
<path d="M265.935 158.213C274.039 158.213 280.608 151.641 280.608 143.534C280.608 135.427 274.039 128.854 265.935 128.854C257.83 128.854 251.261 135.427 251.261 143.534C251.261 151.641 257.83 158.213 265.935 158.213Z" fill="#FFB6B6"/>
<path d="M262.397 157.267L272.999 156.726C274.357 156.656 275.84 156.536 276.828 155.601C277.359 155.024 277.768 154.344 278.03 153.604C279.01 151.326 279.99 149.049 280.945 146.761C282.266 143.596 283.564 140.254 283.226 136.841C283.147 135.282 282.494 133.808 281.392 132.703C280.83 132.17 280.107 131.839 279.337 131.761C278.566 131.683 277.792 131.862 277.134 132.271C276.971 131.191 276.564 130.163 275.945 129.264C275.326 128.365 274.511 127.618 273.561 127.08C271.642 126.02 269.451 125.555 267.268 125.746C264.099 125.95 261.074 127.143 258.618 129.156C257.928 129.794 257.19 130.378 256.412 130.905C256.02 131.167 255.58 131.346 255.117 131.432C254.654 131.518 254.178 131.508 253.719 131.404C253.264 131.282 252.869 131 252.606 130.609C252.343 130.219 252.23 129.746 252.288 129.279C251.541 129.837 251.03 130.654 250.852 131.569C250.675 132.485 250.845 133.434 251.329 134.231C250.779 134.462 250.178 134.546 249.585 134.476C248.993 134.406 248.428 134.183 247.947 133.831C247.431 134.087 246.975 134.448 246.607 134.89C246.238 135.333 245.967 135.848 245.809 136.402C245.651 136.955 245.611 137.536 245.69 138.107C245.769 138.677 245.967 139.225 246.27 139.714C246.574 140.204 246.976 140.624 247.451 140.95C247.926 141.275 248.464 141.497 249.03 141.602C249.596 141.707 250.177 141.693 250.738 141.56C251.298 141.428 251.824 141.179 252.283 140.832C252.926 141.733 252.687 142.958 252.603 144.063C252.519 145.168 252.815 146.54 253.88 146.846C255.319 147.258 256.484 145.32 257.981 145.341C258.351 145.371 258.707 145.491 259.018 145.692C259.33 145.893 259.587 146.167 259.767 146.491C260.119 147.142 260.361 147.848 260.481 148.578L262.397 157.206" fill="#2F2E41"/>
<path d="M675.775 289.257C675.775 286.984 675.012 285.139 674.075 285.135H418.661C417.72 285.139 416.961 286.984 416.957 289.257V382.829C416.957 383.04 416.879 383.244 416.737 383.4C416.595 383.556 416.4 383.654 416.19 383.675C415.505 383.74 414.819 383.802 414.134 383.858C414.117 383.858 414.1 383.863 414.083 383.863C413.71 383.897 413.337 383.922 412.964 383.952H412.96C412.768 383.597 412.578 383.239 412.39 382.878C412.327 382.756 412.294 382.621 412.294 382.484V283.909C412.294 283.282 412.319 282.65 412.362 282.026C412.422 281.17 412.528 280.318 412.68 279.473C413.396 275.533 415.016 272.866 416.855 272.857H675.877C676.145 272.859 676.411 272.915 676.657 273.023C677.018 273.183 677.345 273.412 677.619 273.697C677.991 274.084 678.309 274.519 678.565 274.991C679.62 277.095 680.228 279.395 680.349 281.746C680.349 281.772 680.353 281.797 680.353 281.823C680.413 282.51 680.442 283.209 680.438 283.909L680.498 292.997L680.536 298.417L680.65 315.423L680.693 321.462L680.879 383.464C680.879 383.689 680.79 383.905 680.631 384.064C680.472 384.223 680.256 384.312 680.031 384.312H676.623C676.398 384.312 676.182 384.223 676.023 384.064C675.864 383.905 675.775 383.689 675.775 383.464V289.257Z" fill="#E6E6E6"/>
<path d="M606.371 230.331H578.85C578.461 230.332 578.087 230.487 577.813 230.763C577.538 231.038 577.383 231.412 577.384 231.802V275.293H607.841V231.802C607.841 231.608 607.803 231.417 607.73 231.239C607.656 231.06 607.547 230.898 607.411 230.762C607.274 230.625 607.112 230.517 606.934 230.443C606.756 230.369 606.564 230.331 606.371 230.331ZM592.703 255.043C591.842 255.039 591.018 254.695 590.41 254.086C589.801 253.477 589.457 252.653 589.453 251.792V246.775C589.453 245.913 589.796 245.086 590.405 244.476C591.015 243.867 591.841 243.524 592.703 243.524C593.565 243.524 594.392 243.867 595.001 244.476C595.611 245.086 595.953 245.913 595.953 246.775V251.792C595.949 252.653 595.605 253.477 594.997 254.086C594.388 254.695 593.564 255.039 592.703 255.043Z" fill="#CCCCCC"/>
<path d="M577.289 273.902V278.098C577.29 278.316 577.376 278.524 577.53 278.678C577.683 278.832 577.892 278.918 578.109 278.919H607.115C607.333 278.918 607.541 278.831 607.694 278.677C607.848 278.524 607.934 278.316 607.935 278.098V273.902H577.289Z" fill="#3F3D56"/>
<path d="M651.944 162.458H534.301C533.29 162.46 532.322 162.862 531.607 163.577C530.892 164.292 530.49 165.261 530.488 166.272V245.688C530.489 246.699 530.891 247.669 531.606 248.384C532.321 249.099 533.29 249.501 534.301 249.502H651.944C652.955 249.501 653.924 249.099 654.639 248.384C655.354 247.669 655.756 246.699 655.757 245.688V166.272C655.755 165.261 655.353 164.292 654.638 163.577C653.923 162.862 652.955 162.46 651.944 162.458Z" fill="#E6E6E6"/>
<path d="M650.962 165.213H535.284C534.743 165.214 534.224 165.43 533.842 165.813C533.46 166.196 533.245 166.716 533.245 167.257V244.704C533.246 245.245 533.461 245.763 533.843 246.145C534.226 246.528 534.744 246.743 535.284 246.744H650.962C651.503 246.743 652.021 246.528 652.403 246.145C652.785 245.763 653 245.245 653.001 244.704V167.257C653.001 166.716 652.786 166.196 652.404 165.813C652.022 165.43 651.503 165.214 650.962 165.213Z" fill="white"/>
<path d="M628.43 280.379H559.608C559.419 280.379 559.233 280.337 559.063 280.256C558.893 280.175 558.743 280.057 558.625 279.911C558.506 279.764 558.421 279.593 558.377 279.41C558.333 279.227 558.33 279.036 558.369 278.852L559.437 273.778C559.498 273.494 559.654 273.24 559.879 273.057C560.104 272.874 560.385 272.774 560.676 272.772H627.362C627.652 272.774 627.933 272.874 628.159 273.057C628.384 273.24 628.54 273.494 628.601 273.778L629.669 278.852C629.707 279.036 629.705 279.227 629.66 279.41C629.616 279.593 629.532 279.764 629.413 279.911C629.294 280.057 629.144 280.175 628.974 280.256C628.804 280.337 628.618 280.379 628.43 280.379Z" fill="#CCCCCC"/>
<path d="M562.912 273.686H561.536C561.331 273.686 561.164 273.852 561.164 274.058V274.586C561.164 274.791 561.331 274.958 561.536 274.958H562.912C563.117 274.958 563.284 274.791 563.284 274.586V274.058C563.284 273.852 563.117 273.686 562.912 273.686Z" fill="#E6E6E6"/>
<path d="M567.151 273.686H565.775C565.57 273.686 565.403 273.852 565.403 274.058V274.586C565.403 274.791 565.57 274.958 565.775 274.958H567.151C567.356 274.958 567.523 274.791 567.523 274.586V274.058C567.523 273.852 567.356 273.686 567.151 273.686Z" fill="#E6E6E6"/>
<path d="M571.39 273.686H570.014C569.809 273.686 569.643 273.852 569.643 274.058V274.586C569.643 274.791 569.809 274.958 570.014 274.958H571.39C571.596 274.958 571.762 274.791 571.762 274.586V274.058C571.762 273.852 571.596 273.686 571.39 273.686Z" fill="#E6E6E6"/>
<path d="M575.63 273.686H574.254C574.048 273.686 573.882 273.852 573.882 274.058V274.586C573.882 274.791 574.048 274.958 574.254 274.958H575.63C575.835 274.958 576.001 274.791 576.001 274.586V274.058C576.001 273.852 575.835 273.686 575.63 273.686Z" fill="#E6E6E6"/>
<path d="M579.869 273.686H578.493C578.288 273.686 578.121 273.852 578.121 274.058V274.586C578.121 274.791 578.288 274.958 578.493 274.958H579.869C580.074 274.958 580.241 274.791 580.241 274.586V274.058C580.241 273.852 580.074 273.686 579.869 273.686Z" fill="#E6E6E6"/>
<path d="M584.108 273.686H582.732C582.527 273.686 582.36 273.852 582.36 274.058V274.586C582.36 274.791 582.527 274.958 582.732 274.958H584.108C584.314 274.958 584.48 274.791 584.48 274.586V274.058C584.48 273.852 584.314 273.686 584.108 273.686Z" fill="#E6E6E6"/>
<path d="M588.347 273.686H586.971C586.766 273.686 586.6 273.852 586.6 274.058V274.586C586.6 274.791 586.766 274.958 586.971 274.958H588.347C588.553 274.958 588.719 274.791 588.719 274.586V274.058C588.719 273.852 588.553 273.686 588.347 273.686Z" fill="#E6E6E6"/>
<path d="M592.587 273.686H591.211C591.005 273.686 590.839 273.852 590.839 274.058V274.586C590.839 274.791 591.005 274.958 591.211 274.958H592.587C592.792 274.958 592.958 274.791 592.958 274.586V274.058C592.958 273.852 592.792 273.686 592.587 273.686Z" fill="#E6E6E6"/>
<path d="M596.826 273.686H595.45C595.245 273.686 595.078 273.852 595.078 274.058V274.586C595.078 274.791 595.245 274.958 595.45 274.958H596.826C597.031 274.958 597.198 274.791 597.198 274.586V274.058C597.198 273.852 597.031 273.686 596.826 273.686Z" fill="#E6E6E6"/>
<path d="M601.066 273.686H599.69C599.485 273.686 599.318 273.852 599.318 274.058V274.586C599.318 274.791 599.485 274.958 599.69 274.958H601.066C601.272 274.958 601.438 274.791 601.438 274.586V274.058C601.438 273.852 601.272 273.686 601.066 273.686Z" fill="#E6E6E6"/>
<path d="M605.304 273.686H603.928C603.723 273.686 603.557 273.852 603.557 274.058V274.586C603.557 274.791 603.723 274.958 603.928 274.958H605.304C605.51 274.958 605.676 274.791 605.676 274.586V274.058C605.676 273.852 605.51 273.686 605.304 273.686Z" fill="#E6E6E6"/>
<path d="M609.545 273.686H608.169C607.963 273.686 607.797 273.852 607.797 274.058V274.586C607.797 274.791 607.963 274.958 608.169 274.958H609.545C609.75 274.958 609.917 274.791 609.917 274.586V274.058C609.917 273.852 609.75 273.686 609.545 273.686Z" fill="#E6E6E6"/>
<path d="M613.784 273.686H612.408C612.203 273.686 612.036 273.852 612.036 274.058V274.586C612.036 274.791 612.203 274.958 612.408 274.958H613.784C613.989 274.958 614.156 274.791 614.156 274.586V274.058C614.156 273.852 613.989 273.686 613.784 273.686Z" fill="#E6E6E6"/>
<path d="M618.023 273.686H616.647C616.442 273.686 616.275 273.852 616.275 274.058V274.586C616.275 274.791 616.442 274.958 616.647 274.958H618.023C618.229 274.958 618.395 274.791 618.395 274.586V274.058C618.395 273.852 618.229 273.686 618.023 273.686Z" fill="#E6E6E6"/>
<path d="M622.262 273.686H620.886C620.681 273.686 620.515 273.852 620.515 274.058V274.586C620.515 274.791 620.681 274.958 620.886 274.958H622.262C622.468 274.958 622.634 274.791 622.634 274.586V274.058C622.634 273.852 622.468 273.686 622.262 273.686Z" fill="#E6E6E6"/>
<path d="M626.502 273.686H625.126C624.92 273.686 624.754 273.852 624.754 274.058V274.586C624.754 274.791 624.92 274.958 625.126 274.958H626.502C626.707 274.958 626.874 274.791 626.874 274.586V274.058C626.874 273.852 626.707 273.686 626.502 273.686Z" fill="#E6E6E6"/>
<path d="M562.862 275.807H561.486C561.281 275.807 561.114 275.973 561.114 276.179V276.707C561.114 276.912 561.281 277.079 561.486 277.079H562.862C563.067 277.079 563.234 276.912 563.234 276.707V276.179C563.234 275.973 563.067 275.807 562.862 275.807Z" fill="#E6E6E6"/>
<path d="M567.101 275.807H565.725C565.52 275.807 565.354 275.973 565.354 276.179V276.707C565.354 276.912 565.52 277.079 565.725 277.079H567.101C567.307 277.079 567.473 276.912 567.473 276.707V276.179C567.473 275.973 567.307 275.807 567.101 275.807Z" fill="#E6E6E6"/>
<path d="M571.341 275.807H569.965C569.759 275.807 569.593 275.973 569.593 276.179V276.707C569.593 276.912 569.759 277.079 569.965 277.079H571.341C571.546 277.079 571.712 276.912 571.712 276.707V276.179C571.712 275.973 571.546 275.807 571.341 275.807Z" fill="#E6E6E6"/>
<path d="M575.58 275.807H574.204C573.999 275.807 573.832 275.973 573.832 276.179V276.707C573.832 276.912 573.999 277.079 574.204 277.079H575.58C575.785 277.079 575.952 276.912 575.952 276.707V276.179C575.952 275.973 575.785 275.807 575.58 275.807Z" fill="#E6E6E6"/>
<path d="M579.819 275.807H578.443C578.238 275.807 578.071 275.973 578.071 276.179V276.707C578.071 276.912 578.238 277.079 578.443 277.079H579.819C580.024 277.079 580.191 276.912 580.191 276.707V276.179C580.191 275.973 580.024 275.807 579.819 275.807Z" fill="#E6E6E6"/>
<path d="M584.058 275.807H582.682C582.477 275.807 582.311 275.973 582.311 276.179V276.707C582.311 276.912 582.477 277.079 582.682 277.079H584.058C584.264 277.079 584.43 276.912 584.43 276.707V276.179C584.43 275.973 584.264 275.807 584.058 275.807Z" fill="#E6E6E6"/>
<path d="M588.298 275.807H586.922C586.716 275.807 586.55 275.973 586.55 276.179V276.707C586.55 276.912 586.716 277.079 586.922 277.079H588.298C588.503 277.079 588.669 276.912 588.669 276.707V276.179C588.669 275.973 588.503 275.807 588.298 275.807Z" fill="#E6E6E6"/>
<path d="M592.537 275.807H591.161C590.956 275.807 590.789 275.973 590.789 276.179V276.707C590.789 276.912 590.956 277.079 591.161 277.079H592.537C592.742 277.079 592.909 276.912 592.909 276.707V276.179C592.909 275.973 592.742 275.807 592.537 275.807Z" fill="#E6E6E6"/>
<path d="M596.776 275.807H595.4C595.195 275.807 595.028 275.973 595.028 276.179V276.707C595.028 276.912 595.195 277.079 595.4 277.079H596.776C596.981 277.079 597.148 276.912 597.148 276.707V276.179C597.148 275.973 596.981 275.807 596.776 275.807Z" fill="#E6E6E6"/>
<path d="M601.015 275.807H599.639C599.434 275.807 599.268 275.973 599.268 276.179V276.707C599.268 276.912 599.434 277.079 599.639 277.079H601.015C601.221 277.079 601.387 276.912 601.387 276.707V276.179C601.387 275.973 601.221 275.807 601.015 275.807Z" fill="#E6E6E6"/>
<path d="M605.255 275.807H603.879C603.673 275.807 603.507 275.973 603.507 276.179V276.707C603.507 276.912 603.673 277.079 603.879 277.079H605.255C605.46 277.079 605.627 276.912 605.627 276.707V276.179C605.627 275.973 605.46 275.807 605.255 275.807Z" fill="#E6E6E6"/>
<path d="M609.494 275.807H608.118C607.913 275.807 607.746 275.973 607.746 276.179V276.707C607.746 276.912 607.913 277.079 608.118 277.079H609.494C609.699 277.079 609.866 276.912 609.866 276.707V276.179C609.866 275.973 609.699 275.807 609.494 275.807Z" fill="#E6E6E6"/>
<path d="M613.733 275.807H612.357C612.152 275.807 611.985 275.973 611.985 276.179V276.707C611.985 276.912 612.152 277.079 612.357 277.079H613.733C613.939 277.079 614.105 276.912 614.105 276.707V276.179C614.105 275.973 613.939 275.807 613.733 275.807Z" fill="#E6E6E6"/>
<path d="M617.972 275.807H616.596C616.391 275.807 616.225 275.973 616.225 276.179V276.707C616.225 276.912 616.391 277.079 616.596 277.079H617.972C618.178 277.079 618.344 276.912 618.344 276.707V276.179C618.344 275.973 618.178 275.807 617.972 275.807Z" fill="#E6E6E6"/>
<path d="M622.212 275.807H620.836C620.63 275.807 620.464 275.973 620.464 276.179V276.707C620.464 276.912 620.63 277.079 620.836 277.079H622.212C622.417 277.079 622.583 276.912 622.583 276.707V276.179C622.583 275.973 622.417 275.807 622.212 275.807Z" fill="#E6E6E6"/>
<path d="M626.451 275.807H625.075C624.87 275.807 624.703 275.973 624.703 276.179V276.707C624.703 276.912 624.87 277.079 625.075 277.079H626.451C626.656 277.079 626.823 276.912 626.823 276.707V276.179C626.823 275.973 626.656 275.807 626.451 275.807Z" fill="#E6E6E6"/>
<path d="M598.048 278.351H581.835C581.629 278.351 581.463 278.517 581.463 278.723V279.251C581.463 279.456 581.629 279.623 581.835 279.623H598.048C598.254 279.623 598.42 279.456 598.42 279.251V278.723C598.42 278.517 598.254 278.351 598.048 278.351Z" fill="#E6E6E6"/>
<path d="M645.147 175.883H536.907C536.795 175.88 536.688 175.834 536.609 175.753C536.53 175.673 536.486 175.565 536.486 175.452C536.486 175.34 536.53 175.231 536.609 175.151C536.688 175.07 536.795 175.024 536.907 175.021H645.147C645.259 175.024 645.366 175.07 645.445 175.151C645.523 175.231 645.568 175.34 645.568 175.452C645.568 175.565 645.523 175.673 645.445 175.753C645.366 175.834 645.259 175.88 645.147 175.883Z" fill="#CACACA"/>
<path d="M544.276 172.824C545.669 172.824 546.798 171.669 546.798 170.244C546.798 168.819 545.669 167.664 544.276 167.664C542.882 167.664 541.753 168.819 541.753 170.244C541.753 171.669 542.882 172.824 544.276 172.824Z" fill="#CCCCCC"/>
<path d="M552.99 172.824C554.384 172.824 555.513 171.669 555.513 170.244C555.513 168.819 554.384 167.664 552.99 167.664C551.597 167.664 550.468 168.819 550.468 170.244C550.468 171.669 551.597 172.824 552.99 172.824Z" fill="#CCCCCC"/>
<path d="M561.704 172.824C563.097 172.824 564.227 171.669 564.227 170.244C564.227 168.819 563.097 167.664 561.704 167.664C560.311 167.664 559.182 168.819 559.182 170.244C559.182 171.669 560.311 172.824 561.704 172.824Z" fill="#CCCCCC"/>
<path d="M639.9 168.303H633.71C633.587 168.305 633.47 168.356 633.384 168.443C633.298 168.531 633.25 168.649 633.25 168.772C633.25 168.894 633.298 169.012 633.384 169.1C633.47 169.188 633.587 169.238 633.71 169.24H639.9C640.022 169.238 640.139 169.188 640.225 169.1C640.311 169.012 640.359 168.894 640.359 168.772C640.359 168.649 640.311 168.531 640.225 168.443C640.139 168.356 640.023 168.305 639.9 168.303Z" fill="#CCCCCC"/>
<path d="M639.901 170.063H633.71C633.588 170.066 633.471 170.116 633.385 170.204C633.299 170.292 633.251 170.41 633.251 170.532C633.251 170.655 633.299 170.773 633.385 170.861C633.471 170.948 633.588 170.999 633.71 171.001H639.901C640.023 170.999 640.14 170.948 640.226 170.861C640.312 170.773 640.36 170.655 640.36 170.532C640.36 170.41 640.312 170.292 640.226 170.204C640.14 170.116 640.023 170.066 639.901 170.063Z" fill="#CCCCCC"/>
<path d="M639.9 171.821H633.71C633.587 171.824 633.47 171.874 633.384 171.962C633.298 172.05 633.25 172.167 633.25 172.29C633.25 172.413 633.298 172.531 633.384 172.618C633.47 172.706 633.587 172.757 633.71 172.759H639.9C640.022 172.757 640.139 172.706 640.225 172.618C640.311 172.531 640.359 172.413 640.359 172.29C640.359 172.167 640.311 172.05 640.225 171.962C640.139 171.874 640.023 171.824 639.9 171.821Z" fill="#CCCCCC"/>
<path d="M599.767 199.343H586.242C585.226 199.343 584.402 200.167 584.402 201.183C584.402 202.199 585.226 203.023 586.242 203.023H599.767C600.783 203.023 601.606 202.199 601.606 201.183C601.606 200.167 600.783 199.343 599.767 199.343Z" fill="#45B34A"/>
<path d="M608.504 206.703H577.504C576.489 206.703 575.665 207.527 575.665 208.543C575.665 209.56 576.489 210.383 577.504 210.383H608.504C609.52 210.383 610.343 209.56 610.343 208.543C610.343 207.527 609.52 206.703 608.504 206.703Z" fill="#E6E6E6"/>
<path d="M608.504 214.063H577.504C576.489 214.063 575.665 214.887 575.665 215.904C575.665 216.92 576.489 217.744 577.504 217.744H608.504C609.52 217.744 610.343 216.92 610.343 215.904C610.343 214.887 609.52 214.063 608.504 214.063Z" fill="#E6E6E6"/>
<path d="M399.655 328.732L393.42 325.749L401.985 299.678L411.187 304.08L399.655 328.732Z" fill="#FFB6B6"/>
<path d="M441.455 324.529C441.002 324.813 440.549 325.093 440.091 325.372C439.179 325.931 438.259 326.481 437.338 327.022C436.876 327.292 436.409 327.562 435.946 327.828V327.842L435.918 327.846L435.909 327.851L435.204 328.025L434.192 325.349L433.725 324.117L433.065 322.371L431.856 319.178L425.49 302.364L435.387 299.922L435.758 301.438H435.763L435.946 302.19L439.404 316.218L440.109 319.087L440.132 319.174L440.558 320.887L440.924 322.371L441.332 324.03L441.455 324.529Z" fill="#FFB6B6"/>
<path d="M500.495 265.482C499.868 266.489 499.227 267.493 498.581 268.487C497.381 270.338 496.149 272.161 494.885 273.957C494.885 273.962 494.88 273.962 494.876 273.967C494.138 274.65 493.324 275.245 492.449 275.74C492.412 275.767 492.371 275.785 492.334 275.808C491.69 276.165 491.004 276.44 490.291 276.628C490.035 276.693 489.774 276.757 489.518 276.821C488.592 277.041 487.676 277.229 486.765 277.393C485.144 277.682 483.541 277.888 481.947 278.017C481.819 278.03 481.691 278.039 481.562 278.049C475.009 278.53 468.629 277.755 461.97 276.486C458.681 275.863 455.324 275.116 451.848 274.342C450.713 274.086 449.572 273.834 448.418 273.582C448.331 273.563 448.239 273.54 448.148 273.522C446.499 273.16 444.823 272.803 443.105 272.45C440.944 272.006 438.713 271.575 436.396 271.167L436.561 274.434C436.698 276.947 437.22 279.424 438.109 281.778C439.098 284.674 439.881 286.964 438.228 291.734L437.431 294.043C437.844 295.19 437.986 296.416 437.845 297.627C437.705 298.838 437.285 299.999 436.62 301.021L436.46 301.263L443.105 318.082L443.536 319.173H440.133L435.947 319.177H428.853L418.617 298.634L418.127 297.653V297.603L419.185 258.124C419.199 257.775 419.226 257.423 419.272 257.074C419.458 255.491 419.958 253.961 420.742 252.574C421.526 251.186 422.579 249.969 423.838 248.992C425.045 248.049 426.427 247.355 427.904 246.951C429.382 246.546 430.925 246.44 432.444 246.638L435.947 247.091L443.105 248.017L448.148 248.672L448.249 248.685L463.119 250.61L464.186 246.257L464.383 246.184L470.644 243.889L492.297 235.949L492.352 235.93L493.777 235.408L493.946 235.683C493.997 235.766 494.047 235.848 494.093 235.93C495.5 238.455 496.647 241.117 497.514 243.875C498.972 248.38 500.172 252.964 501.109 257.606C501.15 257.807 501.187 257.991 501.219 258.156L501.233 258.206C501.246 258.284 501.256 258.334 501.26 258.348C501.689 260.75 501.424 263.225 500.495 265.482Z" fill="#2F2E41"/>
<path d="M501.409 250.932C501.341 250.639 501.254 250.341 501.162 250.052C500.435 247.866 499.588 245.722 498.625 243.629C497.544 241.247 496.248 238.695 494.704 235.932C493.958 234.594 493.155 233.203 492.295 231.758C491.865 231.034 491.418 230.297 490.954 229.545C490.935 229.511 490.916 229.477 490.894 229.445L490.761 229.225L469.337 232.093L461.359 233.16L460.882 237.137L460.768 238.122C460.763 238.122 460.763 238.122 460.768 238.127L460.447 240.811V240.816L460.021 244.362L459.985 244.357L448.146 242.823L435.945 241.242L429.391 240.394C427.873 240.196 426.33 240.303 424.852 240.707C423.375 241.111 421.993 241.806 420.786 242.749C419.527 243.726 418.475 244.944 417.691 246.331C416.907 247.719 416.407 249.248 416.22 250.831C416.179 251.152 416.151 251.482 416.137 251.807L409.955 266.463C406.255 275.229 403.899 284.502 402.966 293.971L398.432 308.472L399.077 308.531L408.686 309.425L411.223 309.663L416.811 301.503C417.447 300.573 418.052 299.616 418.615 298.635C419.542 297.034 420.367 295.375 421.084 293.669L433.17 264.897C434.104 265.057 435.029 265.21 435.945 265.355C440.182 266.042 444.248 266.602 448.146 267.036C460.818 268.452 471.792 268.562 481.56 267.361C484.304 267.027 486.955 266.587 489.516 266.042C490.454 265.845 491.381 265.633 492.295 265.405C492.511 265.355 492.721 265.304 492.932 265.249C494.825 264.761 496.565 263.806 497.993 262.471C499.421 261.135 500.492 259.463 501.107 257.607C501.841 255.456 501.946 253.14 501.409 250.932Z" fill="#2F2E41"/>
<path d="M401.647 324.475L394.901 321.24L393.843 320.731L392.153 324.882L380.355 327.48C379.772 327.608 379.245 327.919 378.851 328.368C378.457 328.817 378.217 329.38 378.166 329.976C378.114 330.571 378.255 331.167 378.566 331.677C378.878 332.186 379.344 332.583 379.897 332.808L391.425 337.514L395.084 334.22L394.186 338.641L398.528 340.414L403.286 325.263L401.647 324.475Z" fill="#2F2E41"/>
<path d="M443.105 318.082L443.537 319.172H443.105V318.082Z" fill="#2F2E41"/>
<path d="M440.756 319.406L433.687 321.856L432.578 322.239L434.296 326.378L427.74 336.528C427.416 337.03 427.26 337.622 427.296 338.218C427.332 338.814 427.557 339.384 427.94 339.843C428.322 340.302 428.841 340.626 429.421 340.769C430.001 340.912 430.611 340.866 431.163 340.637L442.663 335.866L442.947 330.95L445.418 334.723L449.751 332.927L442.475 318.812L440.756 319.406Z" fill="#2F2E41"/>
<path d="M397.853 167.814C398.188 168.467 398.663 169.039 399.243 169.489C399.823 169.939 400.494 170.257 401.21 170.419C401.926 170.581 402.668 170.584 403.386 170.429C404.103 170.273 404.777 169.961 405.361 169.517L420.225 179.388L420.253 170.113L406.134 162.161C405.322 161.229 404.197 160.628 402.971 160.471C401.745 160.313 400.504 160.612 399.484 161.308C398.463 162.005 397.733 163.052 397.433 164.251C397.132 165.45 397.282 166.718 397.853 167.814Z" fill="#FFB6B6"/>
<path d="M408.957 172.102L415.892 164.209L444.129 180.979L481.561 177.549C483.411 177.38 485.276 177.62 487.023 178.253C488.77 178.885 490.357 179.895 491.67 181.21C492.983 182.525 493.991 184.113 494.621 185.861C495.252 187.609 495.49 189.475 495.319 191.326C495.006 194.668 493.38 197.75 490.799 199.895C488.217 202.04 484.89 203.073 481.549 202.767L439.391 198.864L408.957 172.102Z" fill="#CCCCCC"/>
<path d="M495.836 172.223L495.771 172.141C490.505 171.621 485.202 172.641 480.504 175.076C475.806 177.511 471.915 181.258 469.302 185.861L466.126 191.459C455.85 204.025 463.317 212.692 463.764 213.98L460.197 230.432L460.997 235.937L461.396 237.573L502.109 258.854C504.427 247.713 502.186 238.219 493.741 230.967L501.911 205.535C503.723 199.912 504.116 193.927 503.056 188.115C501.996 182.303 499.516 176.844 495.836 172.223Z" fill="#CCCCCC"/>
<path d="M463.463 295.775H450.404C449.686 295.775 448.992 295.515 448.45 295.044C447.907 294.572 447.553 293.921 447.452 293.21C446.646 287.274 446.646 281.256 447.452 275.32C447.552 274.617 447.899 273.973 448.431 273.503C448.963 273.032 449.644 272.767 450.354 272.755C454.463 270.912 458.888 270.913 463.508 272.755C463.939 272.76 464.362 272.86 464.75 273.047C465.138 273.234 465.48 273.504 465.752 273.837C466.036 274.184 466.239 274.59 466.347 275.025C466.455 275.46 466.464 275.914 466.375 276.353C465.326 281.575 465.326 286.954 466.375 292.177C466.464 292.616 466.455 293.07 466.347 293.505C466.239 293.94 466.036 294.346 465.752 294.692C465.475 295.032 465.126 295.305 464.73 295.492C464.334 295.679 463.901 295.776 463.463 295.775Z" fill="#45B34A"/>
<path d="M462.096 279.575H451.104C451.013 279.576 450.923 279.558 450.839 279.524C450.755 279.49 450.679 279.439 450.614 279.376C450.55 279.312 450.499 279.236 450.464 279.152C450.429 279.068 450.411 278.978 450.411 278.887C450.411 278.797 450.429 278.707 450.464 278.623C450.499 278.539 450.55 278.463 450.614 278.399C450.679 278.335 450.755 278.285 450.839 278.251C450.923 278.217 451.013 278.199 451.104 278.2H462.096C462.186 278.199 462.277 278.217 462.361 278.251C462.445 278.285 462.521 278.335 462.585 278.399C462.65 278.463 462.701 278.539 462.736 278.623C462.771 278.707 462.789 278.797 462.789 278.887C462.789 278.978 462.771 279.068 462.736 279.152C462.701 279.236 462.65 279.312 462.585 279.376C462.521 279.439 462.445 279.49 462.361 279.524C462.277 279.558 462.186 279.576 462.096 279.575Z" fill="white"/>
<path d="M462.096 285.073H451.104C451.013 285.074 450.923 285.056 450.839 285.022C450.755 284.988 450.679 284.937 450.614 284.874C450.55 284.81 450.499 284.734 450.464 284.65C450.429 284.566 450.411 284.476 450.411 284.385C450.411 284.295 450.429 284.205 450.464 284.121C450.499 284.037 450.55 283.961 450.614 283.897C450.679 283.834 450.755 283.783 450.839 283.749C450.923 283.715 451.013 283.697 451.104 283.698H462.096C462.186 283.697 462.277 283.715 462.361 283.749C462.445 283.783 462.521 283.834 462.585 283.897C462.65 283.961 462.701 284.037 462.736 284.121C462.771 284.205 462.789 284.295 462.789 284.385C462.789 284.476 462.771 284.566 462.736 284.65C462.701 284.734 462.65 284.81 462.585 284.874C462.521 284.937 462.445 284.988 462.361 285.022C462.277 285.056 462.186 285.074 462.096 285.073Z" fill="white"/>
<path d="M462.096 290.571H451.105C451.014 290.572 450.924 290.555 450.84 290.52C450.756 290.486 450.679 290.436 450.615 290.372C450.55 290.308 450.499 290.232 450.464 290.148C450.429 290.064 450.411 289.974 450.411 289.884C450.411 289.793 450.429 289.703 450.464 289.619C450.499 289.535 450.55 289.459 450.615 289.395C450.679 289.331 450.756 289.281 450.84 289.247C450.924 289.213 451.014 289.195 451.105 289.196H462.096C462.187 289.195 462.277 289.213 462.361 289.247C462.445 289.281 462.522 289.331 462.586 289.395C462.651 289.459 462.702 289.535 462.737 289.619C462.772 289.703 462.79 289.793 462.79 289.884C462.79 289.974 462.772 290.064 462.737 290.148C462.702 290.232 462.651 290.308 462.586 290.372C462.522 290.436 462.445 290.486 462.361 290.52C462.277 290.555 462.187 290.572 462.096 290.571Z" fill="white"/>
<path d="M400.247 172.342H387.188C386.47 172.342 385.776 172.082 385.234 171.611C384.692 171.14 384.337 170.488 384.237 169.777C383.43 163.841 383.43 157.823 384.237 151.887C384.336 151.184 384.683 150.54 385.215 150.07C385.747 149.6 386.429 149.335 387.138 149.322C391.247 147.48 395.672 147.48 400.292 149.322C400.723 149.328 401.147 149.428 401.534 149.615C401.922 149.802 402.264 150.071 402.536 150.405C402.82 150.751 403.024 151.157 403.131 151.592C403.239 152.027 403.248 152.481 403.159 152.92C402.11 158.143 402.11 163.522 403.159 168.744C403.248 169.183 403.239 169.637 403.131 170.072C403.024 170.507 402.82 170.913 402.536 171.26C402.259 171.599 401.91 171.872 401.514 172.059C401.118 172.247 400.685 172.343 400.247 172.342Z" fill="#45B34A"/>
<path d="M398.88 156.142H387.888C387.798 156.143 387.708 156.126 387.624 156.091C387.54 156.057 387.463 156.007 387.399 155.943C387.334 155.879 387.283 155.803 387.248 155.719C387.213 155.635 387.195 155.546 387.195 155.455C387.195 155.364 387.213 155.274 387.248 155.19C387.283 155.107 387.334 155.031 387.399 154.967C387.463 154.903 387.54 154.852 387.624 154.818C387.708 154.784 387.798 154.767 387.888 154.768H398.88C398.971 154.767 399.061 154.784 399.145 154.818C399.229 154.852 399.305 154.903 399.37 154.967C399.434 155.031 399.485 155.107 399.52 155.19C399.555 155.274 399.573 155.364 399.573 155.455C399.573 155.546 399.555 155.635 399.52 155.719C399.485 155.803 399.434 155.879 399.37 155.943C399.305 156.007 399.229 156.057 399.145 156.091C399.061 156.126 398.971 156.143 398.88 156.142Z" fill="white"/>
<path d="M398.88 161.64H387.888C387.798 161.641 387.708 161.624 387.624 161.59C387.54 161.555 387.463 161.505 387.399 161.441C387.334 161.377 387.283 161.301 387.248 161.217C387.213 161.134 387.195 161.044 387.195 160.953C387.195 160.862 387.213 160.772 387.248 160.688C387.283 160.605 387.334 160.529 387.399 160.465C387.463 160.401 387.54 160.35 387.624 160.316C387.708 160.282 387.798 160.265 387.888 160.266H398.88C398.971 160.265 399.061 160.282 399.145 160.316C399.229 160.35 399.305 160.401 399.37 160.465C399.434 160.529 399.485 160.605 399.52 160.688C399.555 160.772 399.573 160.862 399.573 160.953C399.573 161.044 399.555 161.134 399.52 161.217C399.485 161.301 399.434 161.377 399.37 161.441C399.305 161.505 399.229 161.555 399.145 161.59C399.061 161.624 398.971 161.641 398.88 161.64Z" fill="white"/>
<path d="M398.879 167.138H387.888C387.797 167.139 387.707 167.122 387.623 167.088C387.539 167.054 387.462 167.003 387.398 166.939C387.333 166.875 387.282 166.799 387.247 166.715C387.212 166.632 387.194 166.542 387.194 166.451C387.194 166.36 387.212 166.27 387.247 166.186C387.282 166.103 387.333 166.027 387.398 165.963C387.462 165.899 387.539 165.848 387.623 165.814C387.707 165.78 387.797 165.763 387.888 165.764H398.879C398.97 165.763 399.06 165.78 399.144 165.814C399.228 165.848 399.305 165.899 399.369 165.963C399.434 166.027 399.485 166.103 399.52 166.186C399.555 166.27 399.573 166.36 399.573 166.451C399.573 166.542 399.555 166.632 399.52 166.715C399.485 166.799 399.434 166.875 399.369 166.939C399.305 167.003 399.228 167.054 399.144 167.088C399.06 167.122 398.97 167.139 398.879 167.138Z" fill="white"/>
<path d="M170.992 205.867H157.932C157.214 205.866 156.52 205.607 155.978 205.135C155.436 204.664 155.082 204.013 154.981 203.301C154.174 197.365 154.174 191.348 154.981 185.412C155.08 184.709 155.427 184.064 155.959 183.594C156.491 183.124 157.173 182.859 157.882 182.847C161.991 181.004 166.416 181.004 171.037 182.846C171.467 182.852 171.891 182.952 172.278 183.139C172.666 183.326 173.008 183.596 173.28 183.929C173.564 184.276 173.768 184.681 173.875 185.116C173.983 185.552 173.993 186.005 173.903 186.445C172.854 191.667 172.854 197.046 173.903 202.269C173.993 202.708 173.983 203.161 173.875 203.597C173.768 204.032 173.564 204.437 173.28 204.784C173.003 205.123 172.654 205.397 172.258 205.584C171.862 205.771 171.43 205.868 170.992 205.867Z" fill="#45B34A"/>
<path d="M169.624 189.667H158.633C158.542 189.668 158.452 189.651 158.368 189.617C158.284 189.583 158.207 189.532 158.143 189.468C158.078 189.404 158.027 189.328 157.992 189.245C157.957 189.161 157.939 189.071 157.939 188.98C157.939 188.889 157.957 188.8 157.992 188.716C158.027 188.632 158.078 188.556 158.143 188.492C158.207 188.428 158.284 188.378 158.368 188.344C158.452 188.309 158.542 188.292 158.633 188.293H169.624C169.715 188.292 169.805 188.309 169.889 188.344C169.973 188.378 170.049 188.428 170.114 188.492C170.178 188.556 170.229 188.632 170.264 188.716C170.299 188.8 170.317 188.889 170.317 188.98C170.317 189.071 170.299 189.161 170.264 189.245C170.229 189.328 170.178 189.404 170.114 189.468C170.049 189.532 169.973 189.583 169.889 189.617C169.805 189.651 169.715 189.668 169.624 189.667Z" fill="white"/>
<path d="M169.624 195.166H158.633C158.542 195.166 158.452 195.149 158.368 195.115C158.284 195.081 158.207 195.03 158.143 194.966C158.078 194.902 158.027 194.826 157.992 194.743C157.957 194.659 157.939 194.569 157.939 194.478C157.939 194.388 157.957 194.298 157.992 194.214C158.027 194.13 158.078 194.054 158.143 193.99C158.207 193.926 158.284 193.876 158.368 193.842C158.452 193.807 158.542 193.79 158.633 193.791H169.624C169.715 193.79 169.805 193.807 169.889 193.842C169.973 193.876 170.049 193.926 170.114 193.99C170.178 194.054 170.229 194.13 170.264 194.214C170.299 194.298 170.317 194.388 170.317 194.478C170.317 194.569 170.299 194.659 170.264 194.743C170.229 194.826 170.178 194.902 170.114 194.966C170.049 195.03 169.973 195.081 169.889 195.115C169.805 195.149 169.715 195.166 169.624 195.166Z" fill="white"/>
<path d="M169.625 200.664H158.633C158.542 200.664 158.452 200.647 158.368 200.613C158.284 200.579 158.207 200.528 158.143 200.465C158.078 200.401 158.027 200.325 157.992 200.241C157.957 200.157 157.939 200.067 157.939 199.976C157.939 199.886 157.957 199.796 157.992 199.712C158.027 199.628 158.078 199.552 158.143 199.488C158.207 199.424 158.284 199.374 158.368 199.34C158.452 199.305 158.542 199.288 158.633 199.289H169.625C169.715 199.288 169.805 199.305 169.889 199.34C169.974 199.374 170.05 199.424 170.114 199.488C170.179 199.552 170.23 199.628 170.265 199.712C170.3 199.796 170.318 199.886 170.318 199.976C170.318 200.067 170.3 200.157 170.265 200.241C170.23 200.325 170.179 200.401 170.114 200.465C170.05 200.528 169.974 200.579 169.889 200.613C169.805 200.647 169.715 200.664 169.625 200.664Z" fill="white"/>
<path d="M467.291 279.075C467.922 278.702 468.465 278.194 468.879 277.588C469.294 276.983 469.571 276.293 469.691 275.569C469.81 274.844 469.769 274.102 469.571 273.395C469.373 272.688 469.022 272.034 468.544 271.477L477.512 256.048L468.256 256.57L461.158 271.141C460.277 272.007 459.743 273.167 459.659 274.4C459.575 275.634 459.946 276.855 460.702 277.833C461.458 278.811 462.546 279.477 463.76 279.706C464.975 279.935 466.231 279.711 467.291 279.075Z" fill="#FFB6B6"/>
<path d="M470.909 267.731L462.622 261.274L477.681 232.081L472.038 194.905C471.759 193.067 471.888 191.191 472.416 189.409C472.943 187.626 473.857 185.982 475.091 184.593C476.325 183.204 477.85 182.103 479.557 181.37C481.264 180.636 483.112 180.288 484.969 180.349C488.323 180.463 491.495 181.903 493.788 184.354C496.082 186.805 497.31 190.066 497.203 193.421L495.809 235.751L470.909 267.731Z" fill="#CCCCCC"/>
<path d="M70.3651 259.756C70.8871 259.231 71.2877 258.598 71.5387 257.902C71.7897 257.205 71.885 256.462 71.8178 255.725C71.7507 254.988 71.5228 254.274 71.1502 253.634C70.7776 252.995 70.2693 252.445 69.6612 252.023L77.7209 211.976L68.8204 214.834L62.369 253.57C61.7283 254.639 61.5019 255.906 61.7325 257.131C61.9632 258.356 62.635 259.453 63.6206 260.216C64.6062 260.978 65.8372 261.353 67.0802 261.268C68.3233 261.183 69.4921 260.645 70.3651 259.756Z" fill="#9E616A"/>
<path d="M82.2652 175.026L76.7428 170.856C76.7428 170.856 71.8713 170.511 71.0085 179.3C70.1457 188.088 68.3741 205.216 68.3741 205.216L59.9238 244.369L71.6213 246.937L80.6721 204.684L86.1017 192.137L82.2652 175.026Z" fill="#CCCCCC"/>
<path d="M73.1611 238.959L104.28 238.44L106.873 217.168H73.1611V238.959Z" fill="#9E616A"/>
<path d="M101.168 369.861H108.351L111.769 342.142L101.166 342.142L101.168 369.861Z" fill="#9E616A"/>
<path d="M56.1621 370.527L63.3459 370.476L66.5692 342.733L57.2261 344.877L56.1621 370.527Z" fill="#9E616A"/>
<path d="M78.6306 198.848L77.0029 203.081L77.3282 207.315L109.185 218.353L107.605 199.825L104.024 195.591L78.6306 198.848Z" fill="#FFB6B6"/>
<path d="M92.2981 160.748C98.5821 160.748 103.676 155.652 103.676 149.366C103.676 143.079 98.5821 137.983 92.2981 137.983C86.0141 137.983 80.9199 143.079 80.9199 149.366C80.9199 155.652 86.0141 160.748 92.2981 160.748Z" fill="#9E616A"/>
<path d="M99.386 366.317L110.742 365.639V370.506L121.539 377.965C122.072 378.334 122.474 378.863 122.685 379.476C122.897 380.089 122.907 380.753 122.714 381.372C122.521 381.991 122.135 382.532 121.613 382.916C121.091 383.3 120.46 383.508 119.812 383.508H106.292L103.962 378.693L103.052 383.508H97.9541L99.386 366.317Z" fill="#2F2E41"/>
<path d="M53.7052 366.999L65.0564 366.241L65.0904 371.108L75.9391 378.492C76.4749 378.857 76.8803 379.383 77.0959 379.994C77.3115 380.606 77.3261 381.27 77.1376 381.89C76.949 382.511 76.5672 383.054 76.0479 383.442C75.5286 383.83 74.899 384.042 74.2509 384.046L60.7312 384.141L58.3672 379.343L57.491 384.164L52.3936 384.199L53.7052 366.999Z" fill="#2F2E41"/>
<path d="M53.9269 349.274L59.1579 307.445L65.3817 263.344C60.8239 254.876 71.0867 228.582 71.0867 228.582L72.5354 228.652L105.324 234.84L105.317 234.808C112.024 253.106 114.245 262.146 113.878 281.632L112.557 351.68H112.971C113.659 351.68 114.319 351.954 114.805 352.44C115.291 352.927 115.564 353.586 115.564 354.274C115.564 354.962 115.291 355.622 114.805 356.109C114.319 356.595 113.659 356.869 112.971 356.869H100.005C99.6642 356.869 99.3265 356.803 99.0114 356.672C98.6962 356.542 98.4098 356.351 98.1686 356.11C97.9273 355.869 97.7359 355.583 97.6053 355.268C97.4747 354.953 97.4075 354.616 97.4075 354.274C97.4075 353.933 97.4747 353.596 97.6053 353.281C97.7359 352.966 97.9273 352.679 98.1686 352.439C98.4098 352.198 98.6962 352.007 99.0114 351.876C99.3265 351.746 99.6642 351.68 100.005 351.68H100.339L88.4382 268.274L78.3477 303.295L66.9376 348.952C71.0867 347.914 70.4425 350.319 70.4425 351.68C70.4425 352.368 70.1693 353.028 69.683 353.515C69.1966 354.001 68.537 354.275 67.8493 354.275H54.8832C54.2802 354.275 53.6958 354.065 53.2308 353.681C52.7659 353.297 52.4495 352.762 52.3362 352.17C52.2229 351.577 52.3198 350.964 52.6102 350.435C52.9005 349.906 53.3662 349.496 53.9269 349.274Z" fill="#2F2E41"/>
<path d="M68.5339 229.944L69.5712 219.567C69.6789 219.144 69.9179 218.766 70.2538 218.487C70.5896 218.208 71.0052 218.042 71.441 218.014C71.8732 213.071 73.6916 191.746 73.8002 190.816L73.8044 190.776L74.6313 173.106C74.6613 172.464 74.9266 171.856 75.3765 171.397C75.8264 170.939 76.4294 170.662 77.0702 170.62L81.4376 170.335C81.4975 170.333 81.5543 170.308 81.596 170.264C81.6376 170.221 81.6609 170.164 81.6609 170.104C81.6609 169.621 81.7559 169.144 81.9405 168.698C82.1251 168.252 82.3956 167.847 82.7366 167.506C83.0777 167.165 83.4826 166.894 83.9281 166.709C84.3737 166.525 84.8513 166.43 85.3336 166.43H98.264C99.1015 166.43 99.9101 166.736 100.538 167.291C101.166 167.845 101.57 168.61 101.674 169.441C101.68 169.498 101.707 169.551 101.75 169.589C101.793 169.627 101.849 169.648 101.907 169.646H101.908C103.378 169.616 104.809 170.114 105.943 171.049C107.077 171.984 107.838 173.295 108.088 174.744C109.856 185.033 113.399 208.385 111.647 221.367C111.037 225.887 112.352 222.307 112.582 226.089C112.605 226.454 112.556 226.821 112.437 227.167C112.318 227.513 112.132 227.833 111.89 228.107C112.386 228.287 112.791 228.656 113.017 229.134C113.243 229.611 113.272 230.159 113.097 230.658L113.324 230.601C113.258 230.866 113.14 231.114 112.977 231.333C112.815 231.551 112.61 231.736 112.377 231.876C112.143 232.015 111.884 232.108 111.614 232.147C111.344 232.187 111.07 232.173 110.806 232.106L76.9765 236.692C75.8655 236.412 68.2538 231.056 68.5339 229.944Z" fill="#CCCCCC"/>
<path d="M158.929 187.755C158.717 188.464 158.352 189.118 157.86 189.671C157.368 190.224 156.761 190.663 156.081 190.955C155.402 191.248 154.666 191.389 153.926 191.366C153.187 191.344 152.461 191.16 151.8 190.826L138.722 202.766L136.985 193.577L149.679 183.677C150.312 182.604 151.317 181.8 152.503 181.419C153.689 181.037 154.974 181.103 156.114 181.606C157.254 182.109 158.171 183.012 158.689 184.145C159.208 185.279 159.293 186.563 158.929 187.755Z" fill="#9E616A"/>
<path d="M113.41 178.628C113.41 178.628 108.85 168.319 103.09 170.368C97.3308 172.417 100.305 182.42 100.305 182.42L121.944 215.04C121.944 215.04 153.155 195.01 149.36 194.869C145.565 194.727 144.429 187.822 144.429 187.822L127.933 196.067L127.375 193.132L126.481 194.027L124.172 192.209L113.41 178.628Z" fill="#CCCCCC"/>
<path d="M486.45 167.303C495.223 167.303 502.335 160.189 502.335 151.412C502.335 142.635 495.223 135.521 486.45 135.521C477.677 135.521 470.564 142.635 470.564 151.412C470.564 160.189 477.677 167.303 486.45 167.303Z" fill="#FFB6B6"/>
<path d="M537.432 174.796C535.598 177.394 532.923 179.279 529.859 180.129C528.633 180.494 527.367 180.709 526.089 180.77C525.931 179.324 525.553 177.911 524.968 176.58C525.028 177.997 524.831 179.413 524.387 180.76C522.468 180.651 520.592 180.148 518.876 179.283C517.19 178.434 515.725 177.205 514.597 175.691C513.469 174.178 512.709 172.422 512.378 170.563C511.705 166.217 513.675 161.949 514.387 157.609C515.102 153.268 513.76 147.771 509.513 146.631C506.278 145.762 506.641 146.137 503.952 148.134C506.749 152.271 496.419 167.431 492.191 166.109C489.801 165.362 488.271 163.168 487.778 163.168C484.455 168.893 490.711 178.541 484.406 180.544L484.926 180.025C488.732 175.341 480.777 165.429 484.583 160.746C485.645 159.435 486.775 157.883 486.461 156.226C486.164 154.651 483.665 153.818 482.933 155.112C484.25 152.095 482.306 148.069 479.088 147.294C476.229 146.605 476.282 147.454 473.413 147.824C473.226 146.584 472.875 145.374 472.371 144.225C472.424 145.463 472.279 146.7 471.943 147.892C470.93 147.873 469.951 147.519 469.16 146.886C466.821 145 467.294 141.039 469.382 138.879C471.473 136.719 474.58 135.941 477.543 135.437C478.404 129.437 494.954 128.811 497.147 134.807C498.082 130.329 503.684 128.006 508.039 129.395C512.394 130.784 515.416 134.853 517.007 139.14C518.598 143.425 519.042 148.036 520.022 152.5C521.002 156.965 522.659 161.511 526.069 164.553C529.48 167.593 535.037 168.599 538.631 165.776C539.153 167.268 539.317 168.862 539.108 170.429C538.9 171.996 538.326 173.492 537.432 174.796Z" fill="#2F2E41"/>
<path d="M686.467 211.061L684.243 222.223C684.075 223.076 683.9 223.945 683.71 224.806C681.851 224.42 679.923 224.528 678.119 225.118C679.551 227.165 680.833 229.311 681.958 231.541C680.556 235.861 678.5 239.854 675.057 242.742C672.758 244.627 670.012 245.889 667.083 246.404C664.155 246.919 661.144 246.671 658.339 245.683L658.438 245.241C654.736 238.056 656.747 228.996 661.348 222.36C663.694 219.086 666.474 216.146 669.611 213.621C672.719 211.03 676.078 208.706 679.406 206.413C680.154 205.899 681.038 205.619 681.945 205.61C682.852 205.6 683.741 205.862 684.499 206.361C685.257 206.86 685.849 207.573 686.2 208.41C686.55 209.248 686.643 210.17 686.467 211.061Z" fill="#E4E4E4"/>
<path d="M659.131 272.541C658.195 265.719 657.232 258.811 657.889 251.916C658.472 245.793 660.339 239.813 664.141 234.909C666.159 232.311 668.615 230.085 671.397 228.331C672.123 227.874 672.791 229.024 672.068 229.479C667.254 232.523 663.53 237.018 661.434 242.316C659.118 248.207 658.747 254.629 659.149 260.887C659.39 264.671 659.901 268.43 660.417 272.186C660.458 272.356 660.433 272.536 660.347 272.688C660.261 272.84 660.119 272.953 659.952 273.005C659.782 273.05 659.601 273.027 659.448 272.94C659.295 272.853 659.182 272.709 659.134 272.54L659.131 272.541Z" fill="#F2F2F2"/>
<path d="M712.093 384.766L0.907186 385C0.667122 384.999 0.437133 384.903 0.267627 384.733C0.0981219 384.563 0.00292969 384.333 0.00292969 384.093C0.00292969 383.852 0.0981219 383.622 0.267627 383.452C0.437133 383.282 0.667122 383.186 0.907186 383.185L712.093 382.951C712.333 382.952 712.564 383.048 712.733 383.218C712.903 383.388 712.998 383.618 712.998 383.858C712.998 384.099 712.903 384.329 712.733 384.499C712.564 384.669 712.333 384.765 712.093 384.766Z" fill="#CACACA"/>
<path d="M78.9066 142.397C77.1616 143.235 75.2081 141.974 73.7016 140.726L74.2405 141.191C71.5778 143.783 70.3329 147.511 69.7246 151.182C69.1157 154.848 69.0478 158.598 68.2811 162.238C67.5139 165.875 65.9223 169.529 62.9495 171.756C58.9668 174.74 53.4739 174.548 48.5864 173.634C48.5213 173.62 48.4607 173.61 48.3955 173.597C49.7106 169.799 50.2452 165.774 49.9672 161.764C48.6571 165.782 46.4268 169.439 43.4541 172.443C40.2137 171.551 37.0507 170.398 33.9962 168.995C32.0198 168.085 29.8917 166.841 29.3432 164.734C28.7933 162.643 30.0703 160.45 31.7778 159.13C33.4853 157.809 35.581 157.12 37.5262 156.18C39.4682 155.244 41.39 153.909 42.1676 151.894C43.9611 147.258 38.852 141.939 40.8431 137.382C41.825 135.141 44.23 133.922 46.4904 132.983C49.9412 131.552 53.4848 130.356 57.0968 129.404C60.2677 128.567 63.5786 127.917 66.8087 128.465C70.0389 129.014 73.2035 130.979 74.3661 134.048C76.3059 134.704 78.3653 135.443 79.6102 137.076C80.8545 138.706 80.7542 141.511 78.9066 142.397Z" fill="#2F2E41"/>
<path d="M94.4339 137.025C89.4417 133.083 85.4053 133.756 82.2915 136.205C81.768 135.622 79.5403 137.225 78.7861 136.995L76.058 142.118C74.6541 144.596 74.0782 147.126 74.3051 148.55C71.7228 155.794 77.8464 160.686 85.0881 163.269C87.9777 164.307 91.1305 164.353 94.0489 163.399L94.1379 162.165L94.6863 163.176C94.6863 163.176 101.307 176.813 102.871 177.425C101.922 174.962 99.4181 163.255 98.7193 160.814C97.7611 157.494 98.4156 152.219 98.9788 148.984C99.3299 146.99 99.3482 144.952 99.0332 142.952L99.0193 142.865L100.568 145.993L104.044 143.806C102.715 139.936 102.689 135.306 94.4339 137.025Z" fill="#2F2E41"/>
</g>
<defs>
<clipPath id="clip0_168_229">
<rect width="713" height="385" fill="white"/>
</clipPath>
</defs>
</svg>
